{
    "ticket": {
        "id": 242,
        "subject": "Create new rule #2",
        "requester": "r",
        "requester_id": 4,
        "priority": "Normal",
        "status": "In Progress",
        "expiration_field_name": "Request expiration",
        "expiration_date": "2019-08-16",
        "domain_name": "",
        "sla_status": "ESCALATION",
        "sla_outcome": "OVERDUE",
        "workflow": {
            "id": 210,
            "name": "Firewall Change Request",
            "uses_topology": true
        },
        "steps": {
            "step": [
                {
                    "id": 1200,
                    "name": "Enter your request",
                    "skipped": false,
                    "redone": false,
                    "tasks": {
                        "task": [
                            {
                                "id": 1212,
                                "assignee_id": 4,
                                "assignee": "r",
                                "status": "DONE",
                                "fields": {
                                    "field": [
                                        {
                                            "@xsi.type": "multi_access_request",
                                            "access_request": [
                                                {
                                                    "@xsi.type": "accessRuleDTO",
                                                    "order": "AR1",
                                                    "risk_analysis_result": {
                                                        "status": "not run"
                                                    },
                                                    "verifier_result": {
                                                        "status": "not run"
                                                    },
                                                    "use_topology": true,
                                                    "targets": {
                                                        "@xsi.type": "multi_target",
                                                        "target": [
                                                            {
                                                                "@xsi.type": "targetDTO",
                                                                "@type": "ANY",
                                                                "id": 21085
                                                            }
                                                        ]
                                                    },
                                                    "users": {
                                                        "user": [
                                                            "Any"
                                                        ]
                                                    },
                                                    "sources": {
                                                        "@xsi.type": "multiSourceDTO",
                                                        "source": [
                                                            {
                                                                "@xsi.type": "sourceDTO",
                                                                "id": 21083,
                                                                "@type": "IP",
                                                                "ip_address": "192.168.60.22",
                                                                "netmask": "255.255.255.255",
                                                                "cidr": 32
                                                            }
                                                        ]
                                                    },
                                                    "destinations": {
                                                        "@xsi.type": "multiDestinationDTO",
                                                        "destination": [
                                                            {
                                                                "@xsi.type": "destinationDTO",
                                                                "ip_address": "192.168.3.22",
                                                                "netmask": "255.255.255.255",
                                                                "cidr": 32,
                                                                "id": 21077,
                                                                "@type": "IP"
                                                            }
                                                        ]
                                                    },
                                                    "services": {
                                                        "@xsi.type": "multi_service",
                                                        "service": [
                                                            {
                                                                "@xsi.type": "serviceDTO",
                                                                "protocol": "TCP",
                                                                "port": "21",
                                                                "predefined_name": "ftp",
                                                                "id": 21079,
                                                                "@type": "PREDEFINED"
                                                            },
                                                            {
                                                                "@xsi.type": "serviceDTO",
                                                                "protocol": "UDP",
                                                                "port": "69",
                                                                "predefined_name": "tftp",
                                                                "id": 21080,
                                                                "@type": "PREDEFINED"
                                                            },
                                                            {
                                                                "@xsi.type": "serviceDTO",
                                                                "protocol": "TCP",
                                                                "port": "22",
                                                                "predefined_name": "ssh",
                                                                "id": 21081,
                                                                "@type": "PREDEFINED"
                                                            }
                                                        ]
                                                    },
                                                    "action": "Accept",
                                                    "labels": {
                                                        "label": []
                                                    },
                                                    "id": 21086
                                                }
                                            ],
                                            "designer_result": {
                                                "status": "not run"
                                            },
                                            "designer_verifier_advanced_option": "OPTIMIZED",
                                            "id": 21075,
                                            "name": "Required Access",
                                            "read_only": false
                                        },
                                        {
                                            "@xsi.type": "text_area",
                                            "id": 21087,
                                            "name": "Business justification",
                                            "read_only": false,
                                            "text": ""
                                        },
                                        {
                                            "@xsi.type": "drop_down_list",
                                            "options": {
                                                "option": [
                                                    {
                                                        "value": "CEO request"
                                                    },
                                                    {
                                                        "value": "Normal"
                                                    },
                                                    {
                                                        "value": "Service outage"
                                                    }
                                                ]
                                            },
                                            "selection": "Normal",
                                            "id": 21088,
                                            "name": "Type of change"
                                        }
                                    ]
                                }
                            }
                        ]
                    }
                },
                {
                    "id": 1201,
                    "name": "Business approval",
                    "skipped": false,
                    "redone": false,
                    "tasks": {
                        "task": [
                            {
                                "id": 1213,
                                "name": "Default",
                                "assignee_id": 4,
                                "assignee": "r",
                                "status": "DONE",
                                "fields": {
                                    "field": [
                                        {
                                            "@xsi.type": "multi_access_request",
                                            "access_request": [
                                                {
                                                    "@xsi.type": "accessRuleDTO",
                                                    "order": "AR1",
                                                    "risk_analysis_result": {
                                                        "status": "not run"
                                                    },
                                                    "verifier_result": {
                                                        "status": "not run"
                                                    },
                                                    "use_topology": true,
                                                    "targets": {
                                                        "@xsi.type": "multi_target",
                                                        "target": [
                                                            {
                                                                "@xsi.type": "targetDTO",
                                                                "@type": "ANY",
                                                                "id": 21099
                                                            }
                                                        ]
                                                    },
                                                    "users": {
                                                        "user": [
                                                            "Any"
                                                        ]
                                                    },
                                                    "sources": {
                                                        "@xsi.type": "multiSourceDTO",
                                                        "source": [
                                                            {
                                                                "@xsi.type": "sourceDTO",
                                                                "id": 21097,
                                                                "@type": "IP",
                                                                "ip_address": "192.168.60.22",
                                                                "netmask": "255.255.255.255",
                                                                "cidr": 32
                                                            }
                                                        ]
                                                    },
                                                    "destinations": {
                                                        "@xsi.type": "multiDestinationDTO",
                                                        "destination": [
                                                            {
                                                                "@xsi.type": "destinationDTO",
                                                                "ip_address": "192.168.3.22",
                                                                "netmask": "255.255.255.255",
                                                                "cidr": 32,
                                                                "id": 21091,
                                                                "@type": "IP"
                                                            }
                                                        ]
                                                    },
                                                    "services": {
                                                        "@xsi.type": "multi_service",
                                                        "service": [
                                                            {
                                                                "@xsi.type": "serviceDTO",
                                                                "protocol": "TCP",
                                                                "port": "21",
                                                                "predefined_name": "ftp",
                                                                "id": 21093,
                                                                "@type": "PREDEFINED"
                                                            },
                                                            {
                                                                "@xsi.type": "serviceDTO",
                                                                "protocol": "UDP",
                                                                "port": "69",
                                                                "predefined_name": "tftp",
                                                                "id": 21094,
                                                                "@type": "PREDEFINED"
                                                            },
                                                            {
                                                                "@xsi.type": "serviceDTO",
                                                                "protocol": "TCP",
                                                                "port": "22",
                                                                "predefined_name": "ssh",
                                                                "id": 21095,
                                                                "@type": "PREDEFINED"
                                                            }
                                                        ]
                                                    },
                                                    "action": "Accept",
                                                    "labels": {
                                                        "label": []
                                                    },
                                                    "id": 21100
                                                }
                                            ],
                                            "designer_result": {
                                                "status": "not run"
                                            },
                                            "designer_verifier_advanced_option": "OPTIMIZED",
                                            "id": 21089,
                                            "name": "Required Access",
                                            "read_only": true
                                        },
                                        {
                                            "@xsi.type": "approve_reject",
                                            "approved": "true",
                                            "reason": "Approved",
                                            "id": 21101,
                                            "name": "Approve Access Request"
                                        }
                                    ]
                                }
                            }
                        ]
                    }
                },
                {
                    "id": 1202,
                    "name": "Identify targets and risks",
                    "skipped": false,
                    "redone": false,
                    "tasks": {
                        "task": [
                            {
                                "id": 1214,
                                "assignee": "N/A",
                                "status": "DONE",
                                "fields": {
                                    "field": [
                                        {
                                            "@xsi.type": "multi_access_request",
                                            "access_request": [
                                                {
                                                    "@xsi.type": "accessRuleDTO",
                                                    "order": "AR1",
                                                    "risk_analysis_result": {
                                                        "status": "no risk"
                                                    },
                                                    "verifier_result": {
                                                        "status": "not run"
                                                    },
                                                    "use_topology": true,
                                                    "targets": {
                                                        "@xsi.type": "multi_target",
                                                        "target": [
                                                            {
                                                                "@xsi.type": "targetDTO",
                                                                "@type": "Object",
                                                                "object_name": "Los Angeles (PAN Cluster)",
                                                                "object_type": "firewall",
                                                                "object_details": "10.100.200.112",
                                                                "management_id": 182,
                                                                "management_name": "Panorama-DG/LA Cluster DG",
                                                                "id": 21114
                                                            },
                                                            {
                                                                "@xsi.type": "targetDTO",
                                                                "@type": "Object",
                                                                "object_name": "ASAv",
                                                                "object_type": "firewall",
                                                                "object_details": "10.100.200.109",
                                                                "management_id": 8,
                                                                "management_name": "ASAv",
                                                                "id": 21115
                                                            },
                                                            {
                                                                "@xsi.type": "targetDTO",
                                                                "@type": "Object",
                                                                "object_name": "San Fran (Palo Alto FW)",
                                                                "object_type": "firewall",
                                                                "object_details": "10.100.200.112",
                                                                "management_id": 180,
                                                                "management_name": "Panorama-DG/San Francisco DG",
                                                                "id": 21116
                                                            }
                                                        ]
                                                    },
                                                    "users": {
                                                        "user": [
                                                            "Any"
                                                        ]
                                                    },
                                                    "sources": {
                                                        "@xsi.type": "multiSourceDTO",
                                                        "source": [
                                                            {
                                                                "@xsi.type": "sourceDTO",
                                                                "id": 21110,
                                                                "@type": "IP",
                                                                "ip_address": "192.168.60.22",
                                                                "netmask": "255.255.255.255",
                                                                "cidr": 32
                                                            }
                                                        ]
                                                    },
                                                    "destinations": {
                                                        "@xsi.type": "multiDestinationDTO",
                                                        "destination": [
                                                            {
                                                                "@xsi.type": "destinationDTO",
                                                                "ip_address": "192.168.3.22",
                                                                "netmask": "255.255.255.255",
                                                                "cidr": 32,
                                                                "id": 21104,
                                                                "@type": "IP"
                                                            }
                                                        ]
                                                    },
                                                    "services": {
                                                        "@xsi.type": "multi_service",
                                                        "service": [
                                                            {
                                                                "@xsi.type": "serviceDTO",
                                                                "protocol": "TCP",
                                                                "port": "21",
                                                                "predefined_name": "ftp",
                                                                "id": 21106,
                                                                "@type": "PREDEFINED"
                                                            },
                                                            {
                                                                "@xsi.type": "serviceDTO",
                                                                "protocol": "UDP",
                                                                "port": "69",
                                                                "predefined_name": "tftp",
                                                                "id": 21107,
                                                                "@type": "PREDEFINED"
                                                            },
                                                            {
                                                                "@xsi.type": "serviceDTO",
                                                                "protocol": "TCP",
                                                                "port": "22",
                                                                "predefined_name": "ssh",
                                                                "id": 21108,
                                                                "@type": "PREDEFINED"
                                                            }
                                                        ]
                                                    },
                                                    "action": "Accept",
                                                    "labels": {
                                                        "label": []
                                                    },
                                                    "id": 21113
                                                }
                                            ],
                                            "designer_result": {
                                                "status": "not run"
                                            },
                                            "designer_verifier_advanced_option": "OPTIMIZED",
                                            "id": 21102,
                                            "name": "Required Access",
                                            "read_only": false
                                        }
                                    ]
                                }
                            }
                        ]
                    }
                },
                {
                    "id": 1203,
                    "name": "Risk Review and Approval (escalation)",
                    "skipped": true,
                    "redone": false,
                    "tasks": {
                        "task": [
                            {
                                "id": 1215,
                                "assignee": "N/A",
                                "status": "DONE",
                                "fields": {
                                    "field": [
                                        {
                                            "@xsi.type": "multi_access_request",
                                            "access_request": [
                                                {
                                                    "@xsi.type": "accessRuleDTO",
                                                    "order": "AR1",
                                                    "risk_analysis_result": {
                                                        "status": "no risk"
                                                    },
                                                    "verifier_result": {
                                                        "status": "not run"
                                                    },
                                                    "use_topology": true,
                                                    "targets": {
                                                        "@xsi.type": "multi_target",
                                                        "target": [
                                                            {
                                                                "@xsi.type": "targetDTO",
                                                                "@type": "Object",
                                                                "object_name": "Los Angeles (PAN Cluster)",
                                                                "object_type": "firewall",
                                                                "object_details": "10.100.200.112",
                                                                "management_id": 182,
                                                                "management_name": "Panorama-DG/LA Cluster DG",
                                                                "id": 21127
                                                            },
                                                            {
                                                                "@xsi.type": "targetDTO",
                                                                "@type": "Object",
                                                                "object_name": "ASAv",
                                                                "object_type": "firewall",
                                                                "object_details": "10.100.200.109",
                                                                "management_id": 8,
                                                                "management_name": "ASAv",
                                                                "id": 21128
                                                            },
                                                            {
                                                                "@xsi.type": "targetDTO",
                                                                "@type": "Object",
                                                                "object_name": "San Fran (Palo Alto FW)",
                                                                "object_type": "firewall",
                                                                "object_details": "10.100.200.112",
                                                                "management_id": 180,
                                                                "management_name": "Panorama-DG/San Francisco DG",
                                                                "id": 21129
                                                            }
                                                        ]
                                                    },
                                                    "users": {
                                                        "user": [
                                                            "Any"
                                                        ]
                                                    },
                                                    "sources": {
                                                        "@xsi.type": "multiSourceDTO",
                                                        "source": [
                                                            {
                                                                "@xsi.type": "sourceDTO",
                                                                "id": 21125,
                                                                "@type": "IP",
                                                                "ip_address": "192.168.60.22",
                                                                "netmask": "255.255.255.255",
                                                                "cidr": 32
                                                            }
                                                        ]
                                                    },
                                                    "destinations": {
                                                        "@xsi.type": "multiDestinationDTO",
                                                        "destination": [
                                                            {
                                                                "@xsi.type": "destinationDTO",
                                                                "ip_address": "192.168.3.22",
                                                                "netmask": "255.255.255.255",
                                                                "cidr": 32,
                                                                "id": 21119,
                                                                "@type": "IP"
                                                            }
                                                        ]
                                                    },
                                                    "services": {
                                                        "@xsi.type": "multi_service",
                                                        "service": [
                                                            {
                                                                "@xsi.type": "serviceDTO",
                                                                "protocol": "TCP",
                                                                "port": "21",
                                                                "predefined_name": "ftp",
                                                                "id": 21121,
                                                                "@type": "PREDEFINED"
                                                            },
                                                            {
                                                                "@xsi.type": "serviceDTO",
                                                                "protocol": "UDP",
                                                                "port": "69",
                                                                "predefined_name": "tftp",
                                                                "id": 21122,
                                                                "@type": "PREDEFINED"
                                                            },
                                                            {
                                                                "@xsi.type": "serviceDTO",
                                                                "protocol": "TCP",
                                                                "port": "22",
                                                                "predefined_name": "ssh",
                                                                "id": 21123,
                                                                "@type": "PREDEFINED"
                                                            }
                                                        ]
                                                    },
                                                    "action": "Accept",
                                                    "labels": {
                                                        "label": []
                                                    },
                                                    "id": 21130
                                                }
                                            ],
                                            "designer_result": {
                                                "status": "not run"
                                            },
                                            "designer_verifier_advanced_option": "OPTIMIZED",
                                            "id": 21117,
                                            "name": "Required Access",
                                            "read_only": false
                                        },
                                        {
                                            "@xsi.type": "approve_reject",
                                            "approved": "true",
                                            "reason": "Only requests with no risks will be approved",
                                            "id": 21131,
                                            "name": "Risk Approval"
                                        }
                                    ]
                                }
                            }
                        ]
                    }
                },
                {
                    "id": 1204,
                    "name": "Technical Design & Implementation",
                    "skipped": false,
                    "redone": false,
                    "tasks": {
                        "task": [
                            {
                                "id": 1216,
                                "assignee_id": 4,
                                "assignee": "r",
                                "status": "ASSIGNED",
                                "fields": {
                                    "field": [
                                        {
                                            "@xsi.type": "multi_access_request",
                                            "access_request": [
                                                {
                                                    "@xsi.type": "accessRuleDTO",
                                                    "order": "AR1",
                                                    "risk_analysis_result": {
                                                        "status": "not run"
                                                    },
                                                    "verifier_result": {
                                                        "status": "not run"
                                                    },
                                                    "use_topology": true,
                                                    "targets": {
                                                        "@xsi.type": "multi_target",
                                                        "target": [
                                                            {
                                                                "@xsi.type": "targetDTO",
                                                                "@type": "Object",
                                                                "object_name": "Los Angeles (PAN Cluster)",
                                                                "object_type": "firewall",
                                                                "object_details": "10.100.200.112",
                                                                "management_id": 182,
                                                                "management_name": "Panorama-DG/LA Cluster DG",
                                                                "id": 21142
                                                            },
                                                            {
                                                                "@xsi.type": "targetDTO",
                                                                "@type": "Object",
                                                                "object_name": "ASAv",
                                                                "object_type": "firewall",
                                                                "object_details": "10.100.200.109",
                                                                "management_id": 8,
                                                                "management_name": "ASAv",
                                                                "id": 21143
                                                            },
                                                            {
                                                                "@xsi.type": "targetDTO",
                                                                "@type": "Object",
                                                                "object_name": "San Fran (Palo Alto FW)",
                                                                "object_type": "firewall",
                                                                "object_details": "10.100.200.112",
                                                                "management_id": 180,
                                                                "management_name": "Panorama-DG/San Francisco DG",
                                                                "id": 21144
                                                            }
                                                        ]
                                                    },
                                                    "users": {
                                                        "user": [
                                                            "Any"
                                                        ]
                                                    },
                                                    "sources": {
                                                        "@xsi.type": "multiSourceDTO",
                                                        "source": [
                                                            {
                                                                "@xsi.type": "sourceDTO",
                                                                "id": 21140,
                                                                "@type": "IP",
                                                                "ip_address": "192.168.60.22",
                                                                "netmask": "255.255.255.255",
                                                                "cidr": 32
                                                            }
                                                        ]
                                                    },
                                                    "destinations": {
                                                        "@xsi.type": "multiDestinationDTO",
                                                        "destination": [
                                                            {
                                                                "@xsi.type": "destinationDTO",
                                                                "ip_address": "192.168.3.22",
                                                                "netmask": "255.255.255.255",
                                                                "cidr": 32,
                                                                "id": 21134,
                                                                "@type": "IP"
                                                            }
                                                        ]
                                                    },
                                                    "services": {
                                                        "@xsi.type": "multi_service",
                                                        "service": [
                                                            {
                                                                "@xsi.type": "serviceDTO",
                                                                "protocol": "TCP",
                                                                "port": "21",
                                                                "predefined_name": "ftp",
                                                                "id": 21136,
                                                                "@type": "PREDEFINED"
                                                            },
                                                            {
                                                                "@xsi.type": "serviceDTO",
                                                                "protocol": "UDP",
                                                                "port": "69",
                                                                "predefined_name": "tftp",
                                                                "id": 21137,
                                                                "@type": "PREDEFINED"
                                                            },
                                                            {
                                                                "@xsi.type": "serviceDTO",
                                                                "protocol": "TCP",
                                                                "port": "22",
                                                                "predefined_name": "ssh",
                                                                "id": 21138,
                                                                "@type": "PREDEFINED"
                                                            }
                                                        ]
                                                    },
                                                    "action": "Accept",
                                                    "labels": {
                                                        "label": []
                                                    },
                                                    "id": 21145
                                                }
                                            ],
                                            "designer_result": {
                                                "status": "designer success",
                                                "result": {
                                                    "@xsi.type": "result_link",
                                                    "@href": "https://10.20.50.192/securechangeworkflow/api/securechange/tickets/242/steps/1204/tasks/1216/fields/21132/designer"
                                                }
                                            },
                                            "designer_verifier_advanced_option": "CREATE_NEW_RULE",
                                            "id": 21132,
                                            "name": "Required Access",
                                            "read_only": false
                                        },
                                        {
                                            "@xsi.type": "text_area",
                                            "id": 21146,
                                            "name": "Design comment",
                                            "read_only": false,
                                            "text": ""
                                        },
                                        {
                                            "@xsi.type": "drop_down_list",
                                            "options": {
                                                "option": [
                                                    {
                                                        "value": "N/A"
                                                    },
                                                    {
                                                        "value": "Sunday"
                                                    },
                                                    {
                                                        "value": "Tuesday evening"
                                                    },
                                                    {
                                                        "value": "Urgent"
                                                    }
                                                ]
                                            },
                                            "selection": "Tuesday evening",
                                            "id": 21147,
                                            "name": "Change Window"
                                        }
                                    ]
                                }
                            }
                        ]
                    }
                }
            ]
        },
        "current_step": {
            "id": 1204,
            "name": "Technical Design & Implementation"
        },
        "comments": {
            "comment": []
        }
    }
}
