{
  "revision": {
    "id": "2285",
    "revisionId": "135",
    "action": "automatic",
    "date": "2019-02-17",
    "time": "13:29:37.000",
    "admin": "-",
    "guiClient": "-",
    "auditLog": "-",
    "policyPackage": "Standard",
    "authorizationStatus": "unauthorized",
    "modules_and_policy": {
      "module_and_policy": []
    },
    "firewall_status": true,
    "ready": true,
    "tickets": {
      "ticket": []
    }
  }
}
