{
  "revision": [
    {
      "id": "1444",
      "revisionId": "11",
      "action": "automatic",
      "date": "2017-03-19",
      "time": "11:54:40.000",
      "admin": "",
      "guiClient": "-",
      "auditLog": "-",
      "policyPackage": "Standard",
      "authorizationStatus": "n_a",
      "modules_and_policy": {
        "module_and_policy": []
      },
      "firewall_status": true,
      "ready": true,
      "tickets": {
        "ticket": []
      }
    },
    {
      "id": "1434",
      "revisionId": "10",
      "action": "automatic",
      "date": "2017-01-01",
      "time": "11:45:25.000",
      "admin": "",
      "guiClient": "",
      "auditLog": "",
      "policyPackage": "Standard",
      "authorizationStatus": "n_a",
      "modules_and_policy": {
        "module_and_policy": []
      },
      "firewall_status": true,
      "ready": false,
      "tickets": {
        "ticket": []
      }
    },
    {
      "id": "1379",
      "revisionId": "9",
      "action": "automatic",
      "date": "2016-12-28",
      "time": "10:31:29.000",
      "admin": "",
      "guiClient": "",
      "auditLog": "",
      "policyPackage": "Standard",
      "authorizationStatus": "n_a",
      "modules_and_policy": {
        "module_and_policy": []
      },
      "firewall_status": true,
      "ready": false,
      "tickets": {
        "ticket": []
      }
    },
    {
      "id": "1343",
      "revisionId": "8",
      "action": "automatic",
      "date": "2016-09-13",
      "time": "17:23:01.000",
      "admin": "-",
      "guiClient": "-",
      "auditLog": "-",
      "policyPackage": "Standard",
      "authorizationStatus": "n_a",
      "modules_and_policy": {
        "module_and_policy": []
      },
      "firewall_status": true,
      "ready": false,
      "tickets": {
        "ticket": []
      }
    },
    {
      "id": "1259",
      "revisionId": "7",
      "action": "automatic",
      "date": "2016-06-15",
      "time": "17:32:58.000",
      "admin": "-",
      "guiClient": "-",
      "auditLog": "-",
      "policyPackage": "Standard",
      "authorizationStatus": "n_a",
      "modules_and_policy": {
        "module_and_policy": []
      },
      "firewall_status": true,
      "ready": false,
      "tickets": {
        "ticket": []
      }
    },
    {
      "id": "1033",
      "revisionId": "6",
      "action": "automatic",
      "date": "2016-02-29",
      "time": "15:08:08.000",
      "admin": "-",
      "guiClient": "-",
      "auditLog": "-",
      "policyPackage": "Standard",
      "authorizationStatus": "n_a",
      "modules_and_policy": {
        "module_and_policy": []
      },
      "firewall_status": true,
      "ready": false,
      "tickets": {
        "ticket": []
      }
    },
    {
      "id": "933",
      "revisionId": "5",
      "action": "automatic",
      "date": "2016-01-10",
      "time": "11:00:24.000",
      "admin": "-",
      "guiClient": "-",
      "auditLog": "-",
      "policyPackage": "Standard",
      "authorizationStatus": "n_a",
      "modules_and_policy": {
        "module_and_policy": []
      },
      "firewall_status": true,
      "ready": false,
      "tickets": {
        "ticket": []
      }
    },
    {
      "id": "932",
      "revisionId": "4",
      "action": "automatic",
      "date": "2016-01-07",
      "time": "18:25:17.000",
      "admin": "-",
      "guiClient": "-",
      "auditLog": "-",
      "policyPackage": "Standard",
      "authorizationStatus": "n_a",
      "modules_and_policy": {
        "module_and_policy": []
      },
      "firewall_status": true,
      "ready": false,
      "tickets": {
        "ticket": []
      }
    },
    {
      "id": "930",
      "revisionId": "3",
      "action": "automatic",
      "date": "2016-01-07",
      "time": "14:15:58.000",
      "admin": "-",
      "guiClient": "-",
      "auditLog": "-",
      "policyPackage": "Standard",
      "authorizationStatus": "n_a",
      "modules_and_policy": {
        "module_and_policy": []
      },
      "firewall_status": true,
      "ready": false,
      "tickets": {
        "ticket": []
      }
    },
    {
      "id": "866",
      "revisionId": "2",
      "action": "automatic",
      "date": "2015-12-21",
      "time": "15:35:48.000",
      "admin": "-",
      "guiClient": "-",
      "auditLog": "-",
      "policyPackage": "Standard",
      "authorizationStatus": "n_a",
      "modules_and_policy": {
        "module_and_policy": []
      },
      "firewall_status": true,
      "ready": false,
      "tickets": {
        "ticket": []
      }
    },
    {
      "id": "841",
      "revisionId": "1",
      "action": "automatic",
      "date": "2015-12-13",
      "time": "13:44:42.000",
      "admin": "-",
      "guiClient": "-",
      "auditLog": "-",
      "policyPackage": "Standard",
      "authorizationStatus": "n_a",
      "modules_and_policy": {
        "module_and_policy": []
      },
      "firewall_status": true,
      "ready": false,
      "tickets": {
        "ticket": []
      }
    }
  ]
}
