{
  "revision": [
    {
      "id": "2152",
      "revisionId": "5",
      "action": "automatic",
      "date": "2018-10-24",
      "time": "15:05:44.000",
      "admin": "",
      "guiClient": "-",
      "auditLog": "-",
      "policyPackage": "Standard",
      "authorizationStatus": "n_a",
      "modules_and_policy": {
        "module_and_policy": []
      },
      "firewall_status": true,
      "ready": true,
      "tickets": {
        "ticket": []
      }
    },
    {
      "id": "2055",
      "revisionId": "4",
      "action": "automatic",
      "date": "2018-08-28",
      "time": "16:54:28.000",
      "admin": "",
      "guiClient": "-",
      "auditLog": "-",
      "policyPackage": "Standard",
      "authorizationStatus": "n_a",
      "modules_and_policy": {
        "module_and_policy": []
      },
      "firewall_status": true,
      "ready": false,
      "tickets": {
        "ticket": []
      }
    },
    {
      "id": "1530",
      "revisionId": "3",
      "action": "automatic",
      "date": "2017-12-05",
      "time": "15:14:37.000",
      "admin": "",
      "guiClient": "-",
      "auditLog": "-",
      "policyPackage": "Standard",
      "authorizationStatus": "n_a",
      "modules_and_policy": {
        "module_and_policy": []
      },
      "firewall_status": true,
      "ready": false,
      "tickets": {
        "ticket": []
      }
    },
    {
      "id": "1325",
      "revisionId": "2",
      "action": "automatic",
      "date": "2016-09-12",
      "time": "12:03:15.000",
      "admin": "-",
      "guiClient": "-",
      "auditLog": "-",
      "policyPackage": "Standard",
      "authorizationStatus": "n_a",
      "modules_and_policy": {
        "module_and_policy": []
      },
      "firewall_status": true,
      "ready": false,
      "tickets": {
        "ticket": []
      }
    },
    {
      "id": "1253",
      "revisionId": "1",
      "action": "automatic",
      "date": "2016-06-15",
      "time": "17:30:53.000",
      "admin": "-",
      "guiClient": "-",
      "auditLog": "-",
      "policyPackage": "Standard",
      "authorizationStatus": "n_a",
      "modules_and_policy": {
        "module_and_policy": []
      },
      "firewall_status": true,
      "ready": false,
      "tickets": {
        "ticket": []
      }
    }
  ]
}
