{
    "GenericInterface": {
        "id": 3,
        "mgmtId": 1,
        "name": "newApo3",
        "ip": "100.103.33.33",
        "mask": "255.255.255.0",
        "vrf": "V101-PA",
        "mpls": false,
        "unnumbered": false,
        "type": "internal"
    }
}