{
  "rules": {
    "count": 4,
    "total": 4,
    "rule": [
      {
        "@xsi.type": "cloudSecurityRuleDTO",
        "id": "1805",
        "uid": "{43c41832-ca25-40e5-b893-c533f71f6fda}",
        "order": 1,
        "binding": [
          {
            "direction": "inbound",
            "rule_count": 2,
            "security_rule_count": 2,
            "default": false,
            "uid": "{a83b1933-d9b3-4b91-903e-f1770d1ae817}_inbound_@_123",
            "display_name": "default (inbound)"
          }
        ],
        "name": "",
        "comment": "",
        "action": "Accept",
        "implicit": false,
        "disabled": false,
        "external": false,
        "acceleration_breaker": false,
        "authentication_rule": false,
        "rule_number": 1,
        "option": [],
        "src_networks_negated": false,
        "dest_networks_negated": false,
        "src_services_negated": false,
        "dest_services_negated": false,
        "src_network": [
          {
            "id": "6555",
            "uid": "{a83b1933-d9b3-4b91-903e-f1770d1ae817}",
            "display_name": "default",
            "name": "27f566c5-931c-4457-b411-70819231a58b"
          }
        ],
        "dst_network": [
          {
            "id": "6555",
            "uid": "{a83b1933-d9b3-4b91-903e-f1770d1ae817}",
            "display_name": "default",
            "name": "27f566c5-931c-4457-b411-70819231a58b"
          }
        ],
        "src_service": [],
        "dst_service": [
          {
            "id": "2928027",
            "uid": "{ee39f24d-01d5-4289-8f77-387d53b61e22}",
            "display_name": "Unrecognized",
            "name": "7f5f743ac34344aeb26849015b4b3dae"
          }
        ],
        "application": [],
        "time": [],
        "vpn": [],
        "install": [
          {
            "id": "6555",
            "uid": "{a83b1933-d9b3-4b91-903e-f1770d1ae817}",
            "display_name": "default",
            "name": "27f566c5-931c-4457-b411-70819231a58b"
          }
        ],
        "users": [],
        "ip_type": "IPv6",
        "type": "rule"
      },
      {
        "@xsi.type": "cloudSecurityRuleDTO",
        "id": "1806",
        "uid": "{d4c7e22d-51c7-4b68-842e-e8e91b48e314}",
        "order": 2,
        "binding": [
          {
            "direction": "inbound",
            "rule_count": 2,
            "security_rule_count": 2,
            "default": false,
            "uid": "{a83b1933-d9b3-4b91-903e-f1770d1ae817}_inbound_@_123",
            "display_name": "default (inbound)"
          }
        ],
        "name": "",
        "comment": "",
        "action": "Accept",
        "implicit": false,
        "disabled": false,
        "external": false,
        "acceleration_breaker": false,
        "authentication_rule": false,
        "rule_number": 2,
        "option": [],
        "src_networks_negated": false,
        "dest_networks_negated": false,
        "src_services_negated": false,
        "dest_services_negated": false,
        "src_network": [
          {
            "id": "6555",
            "uid": "{a83b1933-d9b3-4b91-903e-f1770d1ae817}",
            "display_name": "default",
            "name": "27f566c5-931c-4457-b411-70819231a58b"
          }
        ],
        "dst_network": [
          {
            "id": "6555",
            "uid": "{a83b1933-d9b3-4b91-903e-f1770d1ae817}",
            "display_name": "default",
            "name": "27f566c5-931c-4457-b411-70819231a58b"
          }
        ],
        "src_service": [],
        "dst_service": [
          {
            "id": "2928027",
            "uid": "{ee39f24d-01d5-4289-8f77-387d53b61e22}",
            "display_name": "Unrecognized",
            "name": "7f5f743ac34344aeb26849015b4b3dae"
          }
        ],
        "application": [],
        "time": [],
        "vpn": [],
        "install": [
          {
            "id": "6555",
            "uid": "{a83b1933-d9b3-4b91-903e-f1770d1ae817}",
            "display_name": "default",
            "name": "27f566c5-931c-4457-b411-70819231a58b"
          }
        ],
        "users": [],
        "ip_type": "IPv4",
        "type": "rule"
      },
      {
        "@xsi.type": "cloudSecurityRuleDTO",
        "id": "1807",
        "uid": "{3df61b3e-c272-47a2-968d-74838bd587ab}",
        "order": 3,
        "binding": [
          {
            "direction": "outbound",
            "rule_count": 2,
            "security_rule_count": 2,
            "default": false,
            "uid": "{a83b1933-d9b3-4b91-903e-f1770d1ae817}_outbound_@_123",
            "display_name": "default (outbound)"
          }
        ],
        "name": "",
        "comment": "",
        "action": "Accept",
        "implicit": false,
        "disabled": false,
        "external": false,
        "acceleration_breaker": false,
        "authentication_rule": false,
        "rule_number": 1,
        "option": [],
        "src_networks_negated": false,
        "dest_networks_negated": false,
        "src_services_negated": false,
        "dest_services_negated": false,
        "src_network": [
          {
            "id": "6555",
            "uid": "{a83b1933-d9b3-4b91-903e-f1770d1ae817}",
            "display_name": "default",
            "name": "27f566c5-931c-4457-b411-70819231a58b"
          }
        ],
        "dst_network": [
          {
            "id": "6556",
            "uid": "{97AEB369-9AEA-11D5-BD16-0090272CCB30}",
            "display_name": "Any",
            "name": "Any"
          }
        ],
        "src_service": [],
        "dst_service": [
          {
            "id": "2928027",
            "uid": "{ee39f24d-01d5-4289-8f77-387d53b61e22}",
            "display_name": "Unrecognized",
            "name": "7f5f743ac34344aeb26849015b4b3dae"
          }
        ],
        "application": [],
        "time": [],
        "vpn": [],
        "install": [
          {
            "id": "6555",
            "uid": "{a83b1933-d9b3-4b91-903e-f1770d1ae817}",
            "display_name": "default",
            "name": "27f566c5-931c-4457-b411-70819231a58b"
          }
        ],
        "users": [],
        "ip_type": "IPv6",
        "type": "rule"
      },
      {
        "@xsi.type": "cloudSecurityRuleDTO",
        "id": "1808",
        "uid": "{c54fa8b9-9e6e-4ed9-a0d6-fac2b99f2fc1}",
        "order": 4,
        "binding": [
          {
            "direction": "outbound",
            "rule_count": 2,
            "security_rule_count": 2,
            "default": false,
            "uid": "{a83b1933-d9b3-4b91-903e-f1770d1ae817}_outbound_@_123",
            "display_name": "default (outbound)"
          }
        ],
        "name": "",
        "comment": "",
        "action": "Accept",
        "implicit": false,
        "disabled": false,
        "external": false,
        "acceleration_breaker": false,
        "authentication_rule": false,
        "rule_number": 2,
        "option": [],
        "src_networks_negated": false,
        "dest_networks_negated": false,
        "src_services_negated": false,
        "dest_services_negated": false,
        "src_network": [
          {
            "id": "6555",
            "uid": "{a83b1933-d9b3-4b91-903e-f1770d1ae817}",
            "display_name": "default",
            "name": "27f566c5-931c-4457-b411-70819231a58b"
          }
        ],
        "dst_network": [
          {
            "id": "6556",
            "uid": "{97AEB369-9AEA-11D5-BD16-0090272CCB30}",
            "display_name": "Any",
            "name": "Any"
          }
        ],
        "src_service": [],
        "dst_service": [
          {
            "id": "2928027",
            "uid": "{ee39f24d-01d5-4289-8f77-387d53b61e22}",
            "display_name": "Unrecognized",
            "name": "7f5f743ac34344aeb26849015b4b3dae"
          }
        ],
        "application": [],
        "time": [],
        "vpn": [],
        "install": [
          {
            "id": "6555",
            "uid": "{a83b1933-d9b3-4b91-903e-f1770d1ae817}",
            "display_name": "default",
            "name": "27f566c5-931c-4457-b411-70819231a58b"
          }
        ],
        "users": [],
        "ip_type": "IPv4",
        "type": "rule"
      }
    ]
  }
}
