{
  "rules": {
    "count": 9,
    "total": 9,
    "rule": [
      {
        "@xsi.type": "securityRuleDTO",
        "id": "1",
        "cp_uid": "1194",
        "uid": "{9ea65623-011a-4b4d-b435-42ea782f3423}",
        "order": 1,
        "binding": [
          {
            "policy": {
              "@xsi.type": "managementPolicyDTO",
              "id": 2,
              "name": "Standard",
              "policyTargets": []
            },
            "rule_count": 9,
            "security_rule_count": 9,
            "default": true,
            "uid": "nsx_edge_@_60"
          }
        ],
        "name": "Access From California to DC02",
        "comment": "California --> Virtual DataCenter 02",
        "action": "Accept",
        "implicit": false,
        "disabled": false,
        "external": false,
        "acceleration_breaker": false,
        "authentication_rule": false,
        "rule_number": 1,
        "track": {
          "level": "NONE"
        },
        "option": [],
        "src_networks_negated": false,
        "dest_networks_negated": false,
        "src_services_negated": false,
        "dest_services_negated": false,
        "src_network": [
          {
            "id": "503",
            "uid": "{bbd16e6f-2406-47a3-80c5-a631cd609728}",
            "display_name": "192.168.1.100",
            "name": "impl_object_192.168.1.100"
          },
          {
            "id": "504",
            "uid": "{b753e8d1-ce03-4ea1-a1ec-90762c12730d}",
            "display_name": "192.168.1.101",
            "name": "impl_object_192.168.1.101"
          },
          {
            "id": "506",
            "uid": "{1a45f1ca-5bb9-4c6e-914e-58a84c674f9a}",
            "display_name": "192.168.2.100",
            "name": "impl_object_192.168.2.100"
          },
          {
            "id": "507",
            "uid": "{ed758077-4c10-4def-92cb-1a967ef0fbcd}",
            "display_name": "192.168.2.101",
            "name": "impl_object_192.168.2.101"
          },
          {
            "id": "518",
            "uid": "{bcd0edfa-d36d-49bd-8ef1-633b38429bc6}",
            "display_name": "192.168.3.100",
            "name": "impl_object_192.168.3.100"
          },
          {
            "id": "519",
            "uid": "{858f9d10-73fe-4b50-a243-367179f32a96}",
            "display_name": "192.168.3.101",
            "name": "impl_object_192.168.3.101"
          }
        ],
        "dst_network": [
          {
            "id": "493",
            "uid": "{987fedd7-de43-40c3-a38b-4810ec5eb4ae}",
            "display_name": "172.16.90.150",
            "name": "impl_object_172.16.90.150"
          },
          {
            "id": "494",
            "uid": "{744a6cdd-ec2e-4491-89da-13c0a0038a74}",
            "display_name": "172.16.90.151",
            "name": "impl_object_172.16.90.151"
          }
        ],
        "src_service": [],
        "dst_service": [
          {
            "id": "2876635",
            "uid": "{97647a05-bafb-434b-871b-948a12dedb4c}",
            "display_name": "SMTP",
            "name": "application-85"
          }
        ],
        "application": [],
        "time": [],
        "vpn": [],
        "install": [],
        "users": [],
        "user_access": [],
        "url_category": [],
        "src_zone": [],
        "dst_zone": [],
        "additional_parameter": [],
        "type": "rule"
      },
      {
        "@xsi.type": "securityRuleDTO",
        "id": "2",
        "cp_uid": "1193",
        "uid": "{4d64f542-24fd-4f99-848b-6166d4aea3e6}",
        "order": 2,
        "binding": [
          {
            "policy": {
              "@xsi.type": "managementPolicyDTO",
              "id": 2,
              "name": "Standard",
              "policyTargets": []
            },
            "rule_count": 9,
            "security_rule_count": 9,
            "default": true,
            "uid": "nsx_edge_@_60"
          }
        ],
        "name": "VPN users to v_DCs",
        "comment": "",
        "action": "Accept",
        "implicit": false,
        "disabled": false,
        "external": false,
        "acceleration_breaker": false,
        "authentication_rule": false,
        "rule_number": 2,
        "track": {
          "level": "NONE"
        },
        "option": [],
        "src_networks_negated": false,
        "dest_networks_negated": false,
        "src_services_negated": false,
        "dest_services_negated": false,
        "src_network": [
          {
            "id": "483",
            "uid": "{ae2f95d3-d119-42a1-9335-622a66c83e00}",
            "display_name": "172.16.30.40",
            "name": "impl_object_172.16.30.40"
          },
          {
            "id": "484",
            "uid": "{0250f070-31d9-433c-921e-d173107210cc}",
            "display_name": "172.16.30.50",
            "name": "impl_object_172.16.30.50"
          },
          {
            "id": "485",
            "uid": "{a4117b08-c048-4ad3-9ee2-3ae355b6b5b4}",
            "display_name": "172.16.30.60",
            "name": "impl_object_172.16.30.60"
          }
        ],
        "dst_network": [
          {
            "id": "481",
            "uid": "{320ad11e-2ae7-43cd-a808-2ccd5de160ce}",
            "display_name": "10.21.21.40",
            "name": "impl_object_10.21.21.40"
          },
          {
            "id": "489",
            "uid": "{30455c23-f7b8-449d-877a-bf4386b7294f}",
            "display_name": "172.16.80.40",
            "name": "impl_object_172.16.80.40"
          },
          {
            "id": "497",
            "uid": "{8fa5e7c4-4ca5-4cee-b072-69959adf816f}",
            "display_name": "172.16.90.40",
            "name": "impl_object_172.16.90.40"
          }
        ],
        "src_service": [],
        "dst_service": [
          {
            "id": "2876427",
            "uid": "{7fc3d644-11a0-44f6-a3ae-7e08a9249675}",
            "display_name": "HTTP",
            "name": "application-278"
          },
          {
            "id": "2876469",
            "uid": "{946861fb-a7f2-4d98-8425-6bd45ae67e6f}",
            "display_name": "HTTPS",
            "name": "application-315"
          },
          {
            "id": "2876367",
            "uid": "{75c4d170-2706-4220-a4ab-ff6b2c65c6bc}",
            "display_name": "SSH",
            "name": "application-223"
          }
        ],
        "application": [],
        "time": [],
        "vpn": [],
        "install": [],
        "users": [],
        "user_access": [],
        "url_category": [],
        "src_zone": [],
        "dst_zone": [],
        "additional_parameter": [],
        "type": "rule"
      },
      {
        "@xsi.type": "securityRuleDTO",
        "id": "3",
        "cp_uid": "1206",
        "uid": "{6c99d2bb-41db-48c5-991e-0a5b729b370d}",
        "order": 3,
        "binding": [
          {
            "policy": {
              "@xsi.type": "managementPolicyDTO",
              "id": 2,
              "name": "Standard",
              "policyTargets": []
            },
            "rule_count": 9,
            "security_rule_count": 9,
            "default": true,
            "uid": "nsx_edge_@_60"
          }
        ],
        "name": " ",
        "comment": "",
        "action": "Accept",
        "implicit": false,
        "disabled": false,
        "external": false,
        "acceleration_breaker": false,
        "authentication_rule": false,
        "rule_number": 3,
        "track": {
          "level": "NONE"
        },
        "option": [],
        "src_networks_negated": false,
        "dest_networks_negated": false,
        "src_services_negated": false,
        "dest_services_negated": false,
        "src_network": [
          {
            "id": "498",
            "uid": "{22882b4a-7522-4e19-95fa-98900c1486cc}",
            "display_name": "172.16.90.90",
            "name": "impl_object_172.16.90.90"
          }
        ],
        "dst_network": [
          {
            "id": "482",
            "uid": "{297bd8fa-7d19-4c7a-b075-a02d13c175d9}",
            "display_name": "10.21.21.90",
            "name": "impl_object_10.21.21.90"
          }
        ],
        "src_service": [],
        "dst_service": [
          {
            "id": "2876469",
            "uid": "{946861fb-a7f2-4d98-8425-6bd45ae67e6f}",
            "display_name": "HTTPS",
            "name": "application-315"
          }
        ],
        "application": [],
        "time": [],
        "vpn": [],
        "install": [],
        "users": [],
        "user_access": [],
        "url_category": [],
        "src_zone": [],
        "dst_zone": [],
        "additional_parameter": [],
        "type": "rule"
      },
      {
        "@xsi.type": "securityRuleDTO",
        "id": "4",
        "cp_uid": "1199",
        "uid": "{eacda62a-6a4f-4f6a-b397-80b09b395a71}",
        "order": 4,
        "binding": [
          {
            "policy": {
              "@xsi.type": "managementPolicyDTO",
              "id": 2,
              "name": "Standard",
              "policyTargets": []
            },
            "rule_count": 9,
            "security_rule_count": 9,
            "default": true,
            "uid": "nsx_edge_@_60"
          }
        ],
        "name": " ",
        "comment": "",
        "action": "Accept",
        "implicit": false,
        "disabled": false,
        "external": false,
        "acceleration_breaker": false,
        "authentication_rule": false,
        "rule_number": 4,
        "track": {
          "level": "NONE"
        },
        "option": [],
        "src_networks_negated": false,
        "dest_networks_negated": false,
        "src_services_negated": false,
        "dest_services_negated": false,
        "src_network": [
          {
            "id": "22",
            "uid": "{97AEB369-9AEA-11D5-BD16-0090272CCB30}",
            "display_name": "Any",
            "name": "Any"
          }
        ],
        "dst_network": [
          {
            "id": "475",
            "uid": "{62586ffb-8fe6-4f6a-a953-c33c8b460cb6}",
            "display_name": "10.0.0.0/8",
            "name": "impl_object_10.0.0.0/8"
          },
          {
            "id": "520",
            "uid": "{2cbaeb6e-6c7a-4227-8bdd-6fddcd1da381}",
            "display_name": "192.168.4.0/24",
            "name": "impl_object_192.168.4.0/24"
          },
          {
            "id": "521",
            "uid": "{6c26304e-e222-44e3-841c-2bcef24df2fc}",
            "display_name": "192.168.5.0/24",
            "name": "impl_object_192.168.5.0/24"
          }
        ],
        "src_service": [],
        "dst_service": [
          {
            "id": "2876228",
            "uid": "{97AEB369-9AEA-11D5-BD16-0090272CCB30}",
            "display_name": "Any",
            "name": "Any"
          }
        ],
        "application": [],
        "time": [],
        "vpn": [],
        "install": [],
        "users": [],
        "user_access": [],
        "url_category": [],
        "src_zone": [],
        "dst_zone": [],
        "additional_parameter": [],
        "type": "rule"
      },
      {
        "@xsi.type": "securityRuleDTO",
        "id": "5",
        "cp_uid": "1205",
        "uid": "{ff18e823-9bb2-4aad-8307-9e20e0de082b}",
        "order": 5,
        "binding": [
          {
            "policy": {
              "@xsi.type": "managementPolicyDTO",
              "id": 2,
              "name": "Standard",
              "policyTargets": []
            },
            "rule_count": 9,
            "security_rule_count": 9,
            "default": true,
            "uid": "nsx_edge_@_60"
          }
        ],
        "name": " ",
        "comment": "",
        "action": "Accept",
        "implicit": false,
        "disabled": false,
        "external": false,
        "acceleration_breaker": false,
        "authentication_rule": false,
        "rule_number": 5,
        "track": {
          "level": "NONE"
        },
        "option": [],
        "src_networks_negated": false,
        "dest_networks_negated": false,
        "src_services_negated": false,
        "dest_services_negated": false,
        "src_network": [
          {
            "id": "496",
            "uid": "{cc537492-ef81-411d-8f9e-20e9f6b783e5}",
            "display_name": "172.16.90.240",
            "name": "impl_object_172.16.90.240"
          }
        ],
        "dst_network": [
          {
            "id": "488",
            "uid": "{ce778165-a110-4414-9ac1-5eae2f97b5ca}",
            "display_name": "172.16.80.240",
            "name": "impl_object_172.16.80.240"
          }
        ],
        "src_service": [],
        "dst_service": [
          {
            "id": "2876403",
            "uid": "{4d0b402f-b630-4839-8ef7-edb5ad14c697}",
            "display_name": "AD Server",
            "name": "application-256"
          },
          {
            "id": "2876467",
            "uid": "{64cd78cc-42ac-4fd6-a0ed-18da8efe142f}",
            "display_name": "FTP",
            "name": "application-313"
          },
          {
            "id": "2876604",
            "uid": "{f858d8d9-09ab-48e0-981d-722a96d0071e}",
            "display_name": "LDAP",
            "name": "application-57"
          }
        ],
        "application": [],
        "time": [],
        "vpn": [],
        "install": [],
        "users": [],
        "user_access": [],
        "url_category": [],
        "src_zone": [],
        "dst_zone": [],
        "additional_parameter": [],
        "type": "rule"
      },
      {
        "@xsi.type": "securityRuleDTO",
        "id": "6",
        "cp_uid": "1204",
        "uid": "{85ef6a4a-b956-403f-bdf7-427bf669b950}",
        "order": 6,
        "binding": [
          {
            "policy": {
              "@xsi.type": "managementPolicyDTO",
              "id": 2,
              "name": "Standard",
              "policyTargets": []
            },
            "rule_count": 9,
            "security_rule_count": 9,
            "default": true,
            "uid": "nsx_edge_@_60"
          }
        ],
        "name": " ",
        "comment": "",
        "action": "Accept",
        "implicit": false,
        "disabled": false,
        "external": false,
        "acceleration_breaker": false,
        "authentication_rule": false,
        "rule_number": 6,
        "track": {
          "level": "NONE"
        },
        "option": [],
        "src_networks_negated": false,
        "dest_networks_negated": false,
        "src_services_negated": false,
        "dest_services_negated": false,
        "src_network": [
          {
            "id": "490",
            "uid": "{aee81116-df3f-468f-885e-48aea5882b49}",
            "display_name": "172.16.80.80",
            "name": "impl_object_172.16.80.80"
          }
        ],
        "dst_network": [
          {
            "id": "491",
            "uid": "{3291fb55-3784-4261-b669-8b893ff7d95e}",
            "display_name": "172.16.90.10",
            "name": "impl_object_172.16.90.10"
          }
        ],
        "src_service": [],
        "dst_service": [
          {
            "id": "2876361",
            "uid": "{121f4f26-a108-423a-b9e8-9e47162b82fa}",
            "display_name": "DNS",
            "name": "application-218"
          }
        ],
        "application": [],
        "time": [],
        "vpn": [],
        "install": [],
        "users": [],
        "user_access": [],
        "url_category": [],
        "src_zone": [],
        "dst_zone": [],
        "additional_parameter": [],
        "type": "rule"
      },
      {
        "@xsi.type": "securityRuleDTO",
        "id": "7",
        "cp_uid": "1203",
        "uid": "{88525379-898e-43f4-aba2-9fefed4d8cca}",
        "order": 7,
        "binding": [
          {
            "policy": {
              "@xsi.type": "managementPolicyDTO",
              "id": 2,
              "name": "Standard",
              "policyTargets": []
            },
            "rule_count": 9,
            "security_rule_count": 9,
            "default": true,
            "uid": "nsx_edge_@_60"
          }
        ],
        "name": " ",
        "comment": "",
        "action": "Accept",
        "implicit": false,
        "disabled": false,
        "external": false,
        "acceleration_breaker": false,
        "authentication_rule": false,
        "rule_number": 7,
        "track": {
          "level": "NONE"
        },
        "option": [],
        "src_networks_negated": false,
        "dest_networks_negated": false,
        "src_services_negated": false,
        "dest_services_negated": false,
        "src_network": [
          {
            "id": "127",
            "uid": "{f244f045-4240-41a5-9cd4-58cfffca14a9}",
            "display_name": "172.16.80.1",
            "name": "impl_object_172.16.80.1"
          },
          {
            "id": "487",
            "uid": "{5b6b3281-e232-4500-b34a-34be462e717d}",
            "display_name": "172.16.80.2",
            "name": "impl_object_172.16.80.2"
          },
          {
            "id": "132",
            "uid": "{c84c23bc-bdc5-4ef3-b529-a1c6065ad5df}",
            "display_name": "172.16.90.1",
            "name": "impl_object_172.16.90.1"
          },
          {
            "id": "495",
            "uid": "{8499a857-9719-4041-8533-30d4c938141c}",
            "display_name": "172.16.90.2",
            "name": "impl_object_172.16.90.2"
          }
        ],
        "dst_network": [
          {
            "id": "479",
            "uid": "{dcbe7302-f22c-49c8-b2a7-ae208d1c59a4}",
            "display_name": "10.21.21.200",
            "name": "impl_object_10.21.21.200"
          },
          {
            "id": "480",
            "uid": "{13874c54-6ad4-42ec-a426-5b8d3f33748e}",
            "display_name": "10.21.21.201",
            "name": "impl_object_10.21.21.201"
          }
        ],
        "src_service": [],
        "dst_service": [
          {
            "id": "2876469",
            "uid": "{946861fb-a7f2-4d98-8425-6bd45ae67e6f}",
            "display_name": "HTTPS",
            "name": "application-315"
          }
        ],
        "application": [],
        "time": [],
        "vpn": [],
        "install": [],
        "users": [],
        "user_access": [],
        "url_category": [],
        "src_zone": [],
        "dst_zone": [],
        "additional_parameter": [],
        "type": "rule"
      },
      {
        "@xsi.type": "securityRuleDTO",
        "id": "8",
        "cp_uid": "1202",
        "uid": "{16e2254f-7782-4862-8040-72b78b1430c8}",
        "order": 8,
        "binding": [
          {
            "policy": {
              "@xsi.type": "managementPolicyDTO",
              "id": 2,
              "name": "Standard",
              "policyTargets": []
            },
            "rule_count": 9,
            "security_rule_count": 9,
            "default": true,
            "uid": "nsx_edge_@_60"
          }
        ],
        "name": " ",
        "comment": "",
        "action": "Accept",
        "implicit": false,
        "disabled": false,
        "external": false,
        "acceleration_breaker": false,
        "authentication_rule": false,
        "rule_number": 8,
        "track": {
          "level": "NONE"
        },
        "option": [],
        "src_networks_negated": false,
        "dest_networks_negated": false,
        "src_services_negated": false,
        "dest_services_negated": false,
        "src_network": [
          {
            "id": "477",
            "uid": "{4bede039-2882-47b4-a9f2-4f1af091c721}",
            "display_name": "10.21.21.100",
            "name": "impl_object_10.21.21.100"
          },
          {
            "id": "478",
            "uid": "{5f06a635-5e18-4c88-9747-2092c578ac38}",
            "display_name": "10.21.21.101",
            "name": "impl_object_10.21.21.101"
          }
        ],
        "dst_network": [
          {
            "id": "486",
            "uid": "{5c97c12f-9e4d-4bd4-97f3-282da5664008}",
            "display_name": "172.16.80.145",
            "name": "impl_object_172.16.80.145"
          },
          {
            "id": "492",
            "uid": "{0d26054a-67fe-496d-81bc-51b8687a7607}",
            "display_name": "172.16.90.145",
            "name": "impl_object_172.16.90.145"
          }
        ],
        "src_service": [],
        "dst_service": [
          {
            "id": "2876469",
            "uid": "{946861fb-a7f2-4d98-8425-6bd45ae67e6f}",
            "display_name": "HTTPS",
            "name": "application-315"
          }
        ],
        "application": [],
        "time": [],
        "vpn": [],
        "install": [],
        "users": [],
        "user_access": [],
        "url_category": [],
        "src_zone": [],
        "dst_zone": [],
        "additional_parameter": [],
        "type": "rule"
      },
      {
        "@xsi.type": "securityRuleDTO",
        "id": "9",
        "cp_uid": "1201",
        "uid": "{bf299ef8-8d9e-4b57-8e87-278dd2a16279}",
        "order": 9,
        "binding": [
          {
            "policy": {
              "@xsi.type": "managementPolicyDTO",
              "id": 2,
              "name": "Standard",
              "policyTargets": []
            },
            "rule_count": 9,
            "security_rule_count": 9,
            "default": true,
            "uid": "nsx_edge_@_60"
          }
        ],
        "name": " ",
        "comment": "",
        "action": "Drop",
        "implicit": false,
        "disabled": false,
        "external": false,
        "acceleration_breaker": false,
        "authentication_rule": false,
        "rule_number": 9,
        "track": {
          "level": "LOG"
        },
        "option": [],
        "src_networks_negated": false,
        "dest_networks_negated": false,
        "src_services_negated": false,
        "dest_services_negated": false,
        "src_network": [
          {
            "id": "22",
            "uid": "{97AEB369-9AEA-11D5-BD16-0090272CCB30}",
            "display_name": "Any",
            "name": "Any"
          }
        ],
        "dst_network": [
          {
            "id": "22",
            "uid": "{97AEB369-9AEA-11D5-BD16-0090272CCB30}",
            "display_name": "Any",
            "name": "Any"
          }
        ],
        "src_service": [],
        "dst_service": [
          {
            "id": "2876228",
            "uid": "{97AEB369-9AEA-11D5-BD16-0090272CCB30}",
            "display_name": "Any",
            "name": "Any"
          }
        ],
        "application": [],
        "time": [],
        "vpn": [],
        "install": [],
        "users": [],
        "user_access": [],
        "url_category": [],
        "src_zone": [],
        "dst_zone": [],
        "additional_parameter": [],
        "type": "rule"
      }
    ]
  }
}
