{
   "rules":{
      "count":3,
      "total":3,
      "rule":[
         {
            "@xsi.type":"cloudSecurityRuleDTO",
            "id":"1234",
            "uid":"{c3e785e9-82ab-4a02-b777-c9464693c103}",
            "order":1,
            "binding":[
               {
                  "direction":"inbound",
                  "rule_count":2,
                  "security_rule_count":2,
                  "default":false,
                  "uid":"{5ae0cd8f-3d2b-4f27-a7ce-dd2f7cdc8140}_inbound_@_144",
                  "display_name":"SECURITY_GROUP_NAME[sg-a99c1d2] (inbound)"
               }
            ],
            "name":"",
            "comment":"",
            "action":"Accept",
            "implicit":false,
            "disabled":false,
            "external":false,
            "acceleration_breaker":false,
            "authentication_rule":false,
            "rule_number":1,
            "option":[

            ],
            "src_networks_negated":false,
            "dest_networks_negated":false,
            "src_services_negated":false,
            "dest_services_negated":false,
            "src_network":[
               {
                  "id":"3442",
                  "uid":"{97AEB369-9AEA-11D5-BD16-0090272CCB30}",
                  "display_name":"Any",
                  "name":"Any"
               }
            ],
            "dst_network":[
               {
                  "id":"3420",
                  "uid":"{5ae0cd8f-3d2b-4f27-a7ce-dd2f7cdc8140}",
                  "display_name":"SECURITY_GROUP_NAME[sg-a99c1d2]",
                  "name":"sg-a99c1d2"
               }
            ],
            "src_service":[

            ],
            "dst_service":[
               {
                  "id":"2911271",
                  "uid":"{dcea6f03-2abf-42a8-bf71-35e060b50bbb}",
                  "display_name":"ssh",
                  "name":"1787d7646304c5d987cf4e64a3973dc7"
               }
            ],
            "application":[

            ],
            "time":[

            ],
            "vpn":[

            ],
            "install":[
               {
                  "id":"3420",
                  "uid":"{5ae0cd8f-3d2b-4f27-a7ce-dd2f7cdc8140}",
                  "display_name":"SECURITY_GROUP_NAME[sg-a99c1d2]",
                  "name":"sg-a99c1d2"
               }
            ],
            "users":[

            ],
            "ip_type":"IPv4",
            "type":"rule"
         },
         {
            "@xsi.type":"cloudSecurityRuleDTO",
            "id":"1235",
            "uid":"{cb4ee485-56db-4aae-94d7-5cf702d60298}",
            "order":2,
            "binding":[
               {
                  "direction":"inbound",
                  "rule_count":2,
                  "security_rule_count":2,
                  "default":false,
                  "uid":"{5ae0cd8f-3d2b-4f27-a7ce-dd2f7cdc8140}_inbound_@_144",
                  "display_name":"SECURITY_GROUP_NAME[sg-a99c1d2] (inbound)"
               }
            ],
            "name":"",
            "comment":"",
            "action":"Accept",
            "implicit":false,
            "disabled":false,
            "external":false,
            "acceleration_breaker":false,
            "authentication_rule":false,
            "rule_number":2,
            "option":[

            ],
            "src_networks_negated":false,
            "dest_networks_negated":false,
            "src_services_negated":false,
            "dest_services_negated":false,
            "src_network":[
               {
                  "id":"3443",
                  "uid":"{597e4bec-0248-41a1-8dae-1730da86a92e}",
                  "display_name":"10.100.25.0/24",
                  "name":"9ee4c07ec2d1e7f5b78a35472bb724cc"
               }
            ],
            "dst_network":[
               {
                  "id":"3420",
                  "uid":"{5ae0cd8f-3d2b-4f27-a7ce-dd2f7cdc8140}",
                  "display_name":"SECURITY_GROUP_NAME[sg-a99c1d2]",
                  "name":"sg-a99c1d2"
               }
            ],
            "src_service":[

            ],
            "dst_service":[
               {
                  "id":"2911269",
                  "uid":"{6e371645-2ef9-4cc2-aa47-3098aa3efed1}",
                  "display_name":"www-http",
                  "name":"024480bf8ab5614729c08b0fc79e0426"
               }
            ],
            "application":[

            ],
            "time":[

            ],
            "vpn":[

            ],
            "install":[
               {
                  "id":"3420",
                  "uid":"{5ae0cd8f-3d2b-4f27-a7ce-dd2f7cdc8140}",
                  "display_name":"SECURITY_GROUP_NAME[sg-a99c1d2]",
                  "name":"sg-a99c1d2"
               }
            ],
            "users":[

            ],
            "ip_type":"IPv4",
            "type":"rule"
         },
         {
            "@xsi.type":"cloudSecurityRuleDTO",
            "id":"1236",
            "uid":"{29ca9245-79f5-4a0c-a4cd-710a31e3a37c}",
            "order":3,
            "binding":[
               {
                  "direction":"outbound",
                  "rule_count":1,
                  "security_rule_count":1,
                  "default":false,
                  "uid":"{5ae0cd8f-3d2b-4f27-a7ce-dd2f7cdc8140}_outbound_@_144",
                  "display_name":"SECURITY_GROUP_NAME[sg-a99c1d2] (outbound)"
               }
            ],
            "name":"",
            "comment":"",
            "action":"Accept",
            "implicit":false,
            "disabled":false,
            "external":false,
            "acceleration_breaker":false,
            "authentication_rule":false,
            "rule_number":1,
            "option":[

            ],
            "src_networks_negated":false,
            "dest_networks_negated":false,
            "src_services_negated":false,
            "dest_services_negated":false,
            "src_network":[
               {
                  "id":"3420",
                  "uid":"{5ae0cd8f-3d2b-4f27-a7ce-dd2f7cdc8140}",
                  "display_name":"SECURITY_GROUP_NAME[sg-a99c1d2]",
                  "name":"sg-a99c1d2"
               }
            ],
            "dst_network":[
               {
                  "id":"3442",
                  "uid":"{97AEB369-9AEA-11D5-BD16-0090272CCB30}",
                  "display_name":"Any",
                  "name":"Any"
               }
            ],
            "src_service":[

            ],
            "dst_service":[
               {
                  "id":"2911268",
                  "uid":"{97AEB369-9AEA-11D5-BD16-0090272CCB30}",
                  "display_name":"Any",
                  "name":"Any"
               }
            ],
            "application":[

            ],
            "time":[

            ],
            "vpn":[

            ],
            "install":[
               {
                  "id":"3420",
                  "uid":"{5ae0cd8f-3d2b-4f27-a7ce-dd2f7cdc8140}",
                  "display_name":"SECURITY_GROUP_NAME[sg-a99c1d2]",
                  "name":"sg-a99c1d2"
               }
            ],
            "users":[

            ],
            "ip_type":"IPv4",
            "type":"rule"
         }
      ]
   }
}
