{
    "rule_last_usage": {
        "rule_UID": "d5adc685-6498-47d0-ad62-f7eeae18a069",
        "rule_last_hit": "2018-03-12",
        "applications": {
            "facebook-chat": "2018-03-12"
        },
        "users": {
            "lab\\ateam3": "2018-03-12"
        }
    }
}
