{
    "workflows": {
        "workflow": [
            {
                "id": 588,
                "name": "Contoso",
                "description": "",
                "type": "ACCESS_REQUEST"
            },
            {
                "id": 583,
                "name": "Contoso - Network Obj to AR",
                "description": "Use this workflow to request access to a system/subnet",
                "type": "ACCESS_REQUEST"
            },
            {
                "id": 577,
                "name": "Trigger-Scripts Workflow",
                "description": "Use this workflow for generic requests",
                "type": "GENERIC"
            },
            {
                "id": 581,
                "name": "Contosos Access Request Template",
                "description": "Use this workflow to request access to a system/subnet",
                "type": "ACCESS_REQUEST"
            },
            {
                "id": 578,
                "name": "Firewall Change Request Workflow",
                "description": "Firewall Change Request",
                "type": "ACCESS_REQUEST"
            }
        ]
    }
}