{
    "workflow_triggers": {
        "workflow_trigger": [
            {
                "id": 14,
                "name": "Test One",
                "executer": {
                    "@xsi.type": "ScriptDTO",
                    "path": "test-one-solutions/populate-access-request",
                    "arguments": ""
                },
                "triggers": [
                    {
                        "name": "Test One",
                        "workflow": {
                            "parent_workflow_id": 595,
                            "name": "Test One"
                        },
                        "events": [
                            "REOPEN"
                        ]
                    }
                ]
            }
        ]
    }
}