{
  "license": 
    {
      "id": "1",
      "type": "full",
      "uid": "595e0a9d-6c9e-4a42-b488-cbccb802e567",
      "issued": "2022-06-20",
      "expiration": "2024-06-17",
      "customer": {
        "id": "012345678ZZZZZZXXX",
        "name": "Contoso",
        "site": "Production",
        "site_id": ""
      },
      "skus": [
        {
          "name": "TS-SECTRK-SVR",
          "description": "Subscribed SecureTrack",
          "quantity": 1,
          "expiration": "2024-06-18",
          "devices": []
        },
        {
          "name": "TS-SECTRK-FW-CLS",
          "description": "Subscribed physical, Virtual Context, or Virtual Cloud Firewall Cluster",
          "quantity": 15,
          "expiration": "2024-06-18",
          "devices": [
            {
              "id": "5",
              "name": "SRX",
              "consumed": 1
            },
            {
              "id": "8",
              "name": "ASAv",
              "consumed": 1
            },
            {
              "id": "21",
              "name": "SMCPM",
              "consumed": 1
            },
            {
              "id": "91",
              "name": "StoneSoft-MasterEngine",
              "consumed": 1
            },
            {
              "id": "180",
              "name": "San Fran (Palo Alto FW)",
              "consumed": 1
            },
            {
              "id": "693",
              "name": "asa11",
              "consumed": 1
            },
            {
              "id": "182",
              "name": "Los Angeles (PAN Cluster)",
              "consumed": 2
            },
            {
              "id": "698",
              "name": "asa11",
              "consumed": 1
            },
            {
              "id": "707",
              "name": "asa11",
              "consumed": 1
            },
            {
              "id": "716",
              "name": "asa11",
              "consumed": 1
            },
            {
              "id": "725",
              "name": "asa11",
              "consumed": 1
            },
            {
              "id": "734",
              "name": "asa11",
              "consumed": 1
            },
            {
              "id": "743",
              "name": "asa11",
              "consumed": 1
            },
            {
              "id": "752",
              "name": "asa11",
              "consumed": 1
            },
            {
              "id": "265",
              "name": "SGW_200.238",
              "consumed": 1
            },
            {
              "id": "266",
              "name": "SGW_200.237",
              "consumed": 1
            },
            {
              "id": "280",
              "name": "Fortigate",
              "consumed": 1
            },
            {
              "id": "315",
              "name": "FTD_113.32",
              "consumed": 1
            },
            {
              "id": "318",
              "name": "FTD_112.93",
              "consumed": 1
            },
            {
              "id": "319",
              "name": "FTD_112.94",
              "consumed": 1
            },
            {
              "id": "392",
              "name": "ASA_L2LFW",
              "consumed": 1
            },
            {
              "id": "453",
              "name": "ASAv (Legacy DC)",
              "consumed": 1
            },
            {
              "id": "459",
              "name": "ASA Connector",
              "consumed": 1
            },
            {
              "id": "463",
              "name": "1",
              "consumed": 1
            },
            {
              "id": "464",
              "name": "1",
              "consumed": 1
            },
            {
              "id": "465",
              "name": "asa-1",
              "consumed": 1
            },
            {
              "id": "466",
              "name": "asa-2",
              "consumed": 1
            },
            {
              "id": "467",
              "name": "asa-3",
              "consumed": 1
            },
            {
              "id": "468",
              "name": "asa-3",
              "consumed": 1
            }
          ]
        },
        {
          "name": "TS-SECTRK-FWVS-CLS",
          "description": "Subscribed Virtual Context Firewall Cluster",
          "quantity": 31,
          "expiration": "2024-06-18",
          "devices": [
            {
              "id": "92",
              "name": "StoneSoft-NG VF",
              "consumed": 1
            },
            {
              "id": "159",
              "name": "FG-SITE-A",
              "consumed": 1
            },
            {
              "id": "160",
              "name": "FG-SITE-B",
              "consumed": 1
            },
            {
              "id": "161",
              "name": "FG-External",
              "consumed": 1
            },
            {
              "id": "340",
              "name": "FortiGate-Miami",
              "consumed": 1
            }
          ]
        },
        {
          "name": "TF-SECTRK-CP-MDS",
          "description": "Check Point Provider-1 MDS Server",
          "quantity": 0,
          "devices": []
        },
        {
          "name": "TF-SECTRK-CP-MDSHA",
          "description": "Check Point Provider-1 MDS HA Server",
          "quantity": 0,
          "devices": []
        },
        {
          "name": "TS-SECTRK-CP-MDS",
          "description": "Subscribed Check Point Provider-1 MDS Server",
          "quantity": 0,
          "devices": []
        },
        {
          "name": "TS-SECTRK-CP-MDSHA",
          "description": "Subscribed Check Point Provider-1 MDS HA Server",
          "quantity": 0,
          "devices": []
        },
        {
          "name": "TF-SECTRK-CISCO-RTR",
          "description": "Cisco Router or Switch",
          "quantity": 0,
          "devices": []
        },
        {
          "name": "TF-SECTRK-RTR-SWITCH",
          "description": "Router or Switch",
          "quantity": 0,
          "devices": []
        },
        {
          "name": "TF-SECTRK-RTR-SWITCH-BASIC",
          "description": "Basic Router or Switch",
          "quantity": 0,
          "devices": []
        },
        {
          "name": "TS-SECTRK-CISCO-RTR",
          "description": "Subscribed Cisco Router or Switch",
          "quantity": 0,
          "devices": []
        },
        {
          "name": "TS-SECTRK-RTR-SWITCH",
          "description": "Subscribed Router or Switch",
          "quantity": 0,
          "devices": []
        },
        {
          "name": "TS-SECTRK-RTR-SWITCH-BASIC",
          "description": "Subscribed Basic Router or Switch",
          "quantity": 0,
          "devices": []
        },
        {
          "name": "TF-SECTRK-F5-MOD",
          "description": "F5 BIG-IP LTM",
          "quantity": 0,
          "devices": []
        },
        {
          "name": "TS-SECTRK-F5-MOD",
          "description": "Subscribed F5 BIG-IP LTM",
          "quantity": 0,
          "devices": []
        },
        {
          "name": "TF-SECTRK-BLUECOAT-MOD",
          "description": "Blue Coat ProxySG",
          "quantity": 0,
          "devices": []
        },
        {
          "name": "TS-SECTRK-BLUECOAT-MOD",
          "description": "Subscribed Blue Coat ProxySG",
          "quantity": 0,
          "devices": []
        },
        {
          "name": "TF-SECTRK-IPTABLES-MOD",
          "description": "Linux iptables",
          "quantity": 0,
          "devices": []
        },
        {
          "name": "TS-SECTRK-IPTABLES-MOD",
          "description": "Subscribed Linux iptables",
          "quantity": 0,
          "devices": []
        },
        {
          "name": "TS-SCWF-SVR",
          "description": "Subscribed SecureChange Workflow",
          "quantity": 1,
          "expiration": "2024-06-18",
          "devices": []
        },
        {
          "name": "TS-SCWF-FW-CLS",
          "description": "Subscribed physical, Virtual Context, or Virtual Cloud Firewall Cluster",
          "quantity": 15,
          "expiration": "2024-06-18",
          "devices": [
            {
              "id": "5",
              "name": "SRX",
              "consumed": 1
            },
            {
              "id": "8",
              "name": "ASAv",
              "consumed": 1
            },
            {
              "id": "21",
              "name": "SMCPM",
              "consumed": 1
            },
            {
              "id": "91",
              "name": "StoneSoft-MasterEngine",
              "consumed": 1
            },
            {
              "id": "180",
              "name": "San Fran (Palo Alto FW)",
              "consumed": 1
            },
            {
              "id": "693",
              "name": "asa11",
              "consumed": 1
            },
            {
              "id": "182",
              "name": "Los Angeles (PAN Cluster)",
              "consumed": 2
            },
            {
              "id": "698",
              "name": "asa11",
              "consumed": 1
            },
            {
              "id": "707",
              "name": "asa11",
              "consumed": 1
            },
            {
              "id": "716",
              "name": "asa11",
              "consumed": 1
            },
            {
              "id": "725",
              "name": "asa11",
              "consumed": 1
            },
            {
              "id": "734",
              "name": "asa11",
              "consumed": 1
            },
            {
              "id": "743",
              "name": "asa11",
              "consumed": 1
            },
            {
              "id": "752",
              "name": "asa11",
              "consumed": 1
            },
            {
              "id": "265",
              "name": "SGW_200.238",
              "consumed": 1
            },
            {
              "id": "266",
              "name": "SGW_200.237",
              "consumed": 1
            },
            {
              "id": "280",
              "name": "Fortigate",
              "consumed": 1
            },
            {
              "id": "315",
              "name": "FTD_113.32",
              "consumed": 1
            },
            {
              "id": "318",
              "name": "FTD_112.93",
              "consumed": 1
            },
            {
              "id": "319",
              "name": "FTD_112.94",
              "consumed": 1
            },
            {
              "id": "392",
              "name": "ASA_L2LFW",
              "consumed": 1
            },
            {
              "id": "453",
              "name": "ASAv (Legacy DC)",
              "consumed": 1
            },
            {
              "id": "459",
              "name": "ASA Connector",
              "consumed": 1
            },
            {
              "id": "463",
              "name": "1",
              "consumed": 1
            },
            {
              "id": "464",
              "name": "1",
              "consumed": 1
            },
            {
              "id": "465",
              "name": "asa-1",
              "consumed": 1
            },
            {
              "id": "466",
              "name": "asa-2",
              "consumed": 1
            },
            {
              "id": "467",
              "name": "asa-3",
              "consumed": 1
            },
            {
              "id": "468",
              "name": "asa-3",
              "consumed": 1
            }
          ]
        },
        {
          "name": "TS-SCWF-FWVS-CLS",
          "description": "Subscribed Change Automation Virtual Context Firewall Cluster",
          "quantity": 31,
          "expiration": "2024-06-18",
          "devices": [
            {
              "id": "92",
              "name": "StoneSoft-NG VF",
              "consumed": 1
            },
            {
              "id": "159",
              "name": "FG-SITE-A",
              "consumed": 1
            },
            {
              "id": "160",
              "name": "FG-SITE-B",
              "consumed": 1
            },
            {
              "id": "161",
              "name": "FG-External",
              "consumed": 1
            },
            {
              "id": "340",
              "name": "FortiGate-Miami",
              "consumed": 1
            }
          ]
        },
        {
          "name": "TF-SCWF-RTR-SWITCH",
          "description": "Change Automation Cisco Router or Switch",
          "quantity": 0,
          "devices": []
        },
        {
          "name": "TS-SCWF-RTR-SWITCH",
          "description": "Subscribed Change Automation Cisco Router or Switch",
          "quantity": 0,
          "devices": []
        },
        {
          "name": "TF-SCWF-CP-MDS",
          "description": "Change Automation Checkpoint MDS Server",
          "quantity": 0,
          "devices": []
        },
        {
          "name": "TS-SCWF-CP-MDS",
          "description": "Subscribed Change Automation Checkpoint MDS Server",
          "quantity": 0,
          "devices": []
        },
        {
          "name": "TS-TSS-PROV-FW-CLS",
          "description": "Subscribed Provisioning per physical, Virtual Context, or Virtual Cloud Firewall Cluster",
          "quantity": 15,
          "expiration": "2024-06-18",
          "devices": [
            {
              "id": "5",
              "name": "SRX",
              "consumed": 1
            },
            {
              "id": "8",
              "name": "ASAv",
              "consumed": 1
            },
            {
              "id": "21",
              "name": "SMCPM",
              "consumed": 1
            },
            {
              "id": "91",
              "name": "StoneSoft-MasterEngine",
              "consumed": 1
            },
            {
              "id": "180",
              "name": "San Fran (Palo Alto FW)",
              "consumed": 1
            },
            {
              "id": "693",
              "name": "asa11",
              "consumed": 1
            },
            {
              "id": "182",
              "name": "Los Angeles (PAN Cluster)",
              "consumed": 2
            },
            {
              "id": "698",
              "name": "asa11",
              "consumed": 1
            },
            {
              "id": "707",
              "name": "asa11",
              "consumed": 1
            },
            {
              "id": "716",
              "name": "asa11",
              "consumed": 1
            },
            {
              "id": "725",
              "name": "asa11",
              "consumed": 1
            },
            {
              "id": "734",
              "name": "asa11",
              "consumed": 1
            },
            {
              "id": "743",
              "name": "asa11",
              "consumed": 1
            },
            {
              "id": "752",
              "name": "asa11",
              "consumed": 1
            },
            {
              "id": "761",
              "name": "asa11",
              "consumed": 1
            },
            {
              "id": "265",
              "name": "SGW_200.238",
              "consumed": 1
            },
            {
              "id": "266",
              "name": "SGW_200.237",
              "consumed": 1
            },
            {
              "id": "315",
              "name": "FTD_113.32",
              "consumed": 1
            },
            {
              "id": "318",
              "name": "FTD_112.93",
              "consumed": 1
            },
            {
              "id": "319",
              "name": "FTD_112.94",
              "consumed": 1
            }
          ]
        },
        {
          "name": "TS-TSS-PROV-FWVS-CLS",
          "description": "Subscribed Provisioning for Virtual Context Firewall Cluster",
          "quantity": 31,
          "expiration": "2024-06-18",
          "devices": [
            {
              "id": "92",
              "name": "StoneSoft-NG VF",
              "consumed": 1
            },
            {
              "id": "159",
              "name": "FG-SITE-A",
              "consumed": 1
            },
            {
              "id": "160",
              "name": "FG-SITE-B",
              "consumed": 1
            },
            {
              "id": "161",
              "name": "FG-External",
              "consumed": 1
            },
            {
              "id": "340",
              "name": "FortiGate-Miami",
              "consumed": 1
            }
          ]
        },
        {
          "name": "TF-TSS-PROV-RTR-SWITCH",
          "description": "Provisioning for Router or Switch",
          "quantity": 0,
          "devices": []
        },
        {
          "name": "TS-TSS-PROV-RTR-SWITCH",
          "description": "Subscribed Provisioning for Router or Switch",
          "quantity": 0,
          "devices": []
        },
        {
          "name": "TF-TSS-PROV-CP-MDS",
          "description": "Provisioning for Checkpoint MDS",
          "quantity": 0,
          "devices": []
        },
        {
          "name": "TS-TSS-PROV-CP-MDS",
          "description": "Subscribed Provisioning for Checkpoint MDS",
          "quantity": 0,
          "devices": []
        },
        {
          "name": "TS-SECAPP-ACM-100",
          "description": "Subscribed SecureApp - 100 Applications Connectivity Management Bundle",
          "quantity": 1,
          "expiration": "2024-06-18",
          "devices": []
        },
        {
          "name": "TS-SECAPP-SVR",
          "description": "Subscribed SecureApp - Server base component",
          "quantity": 1,
          "expiration": "2024-06-18",
          "devices": []
        }
      ]
    }
}