{
   "ticket" : {
      "comments" : "",
      "create_date" : "2021-06-30T21:14:17.796+03:00",
      "current_step" : {
         "id" : 1818,
         "name" : "Design"
      },
      "domain_name" : "",
      "id" : 331,
      "priority" : "Normal",
      "requester" : "r",
      "requester_id" : 4,
      "sla_outcome" : "NA",
      "sla_status" : "NA",
      "status" : "In Progress",
      "steps" : {
         "step" : [
            {
               "id" : 1817,
               "name" : "Open request",
               "redone" : false,
               "skipped" : false,
               "tasks" : {
                  "task" : {
                     "assignee" : "r",
                     "assignee_id" : 4,
                     "fields" : {
                        "field" : {
                           "@xsi.type" : "rule_modification_field",
                           "designer_result" : {
                              "status" : "not run"
                           },
                           "devices" : {
                              "device" : {
                                 "bindings" : {
                                    "binding" : {
                                       "binding" : {
                                          "@xsi.type" : "policy__binding",
                                          "installed_on_module" : "SMCPM",
                                          "policy_name" : "Standard"
                                       },
                                       "binding_uid" : "{3A1BA062-6B19-4C97-8F18-79CBA9EF0AA6}",
                                       "rules" : {
                                          "rule" : {
                                             "@xsi.type" : "ns3:slimRuleWithMetadataDTO",
                                             "action" : "ACCEPT",
                                             "additional_parameters" : "",
                                             "communities" : {
                                                "community" : {
                                                   "class_name" : "any_object",
                                                   "name" : "Any",
                                                   "uid" : "{97AEB369-9AEA-11D5-BD16-0090272CCB30}"
                                                }
                                             },
                                             "destinationNetworks" : {
                                                "@xsi.type" : "network_object_group",
                                                "class_name" : "network_object_group",
                                                "comment" : "",
                                                "device_type" : "Checkpoint",
                                                "display_name" : "tufin_domain_controllerF5-LTM",
                                                "global" : false,
                                                "id" : "60dcb43f7cfba058286605b3",
                                                "implicit" : false,
                                                "installable_target" : false,
                                                "ip_type" : "OTHER",
                                                "name" : "tufin_domain_controllerF5-LTM",
                                                "origin" : "DEVICE",
                                                "referenced" : "FROM_RULE",
                                                "shared" : false,
                                                "uid" : "{FBB55938-C72D-11E4-9927-7F0000014949}",
                                                "version_id" : 1102
                                             },
                                             "destinationServices" : [
                                                {
                                                   "@xsi.type" : "transport_service",
                                                   "class_name" : "udp_service",
                                                   "comment" : "Network Time Protocol (UDP)",
                                                   "display_name" : "ntp-udp",
                                                   "global" : false,
                                                   "id" : "60dcb43f7cfba058286605b5",
                                                   "implicit" : false,
                                                   "match_for_any" : true,
                                                   "max_port" : 123,
                                                   "min_port" : 123,
                                                   "name" : "ntp-udp",
                                                   "negate" : false,
                                                   "origin" : "DEVICE",
                                                   "protocol" : 17,
                                                   "referenced" : "UNKNOWN",
                                                   "shared" : false,
                                                   "timeout" : 0,
                                                   "type_on_device" : "",
                                                   "uid" : "{97AEB404-9AEA-11D5-BD16-0090272CCB30}",
                                                   "version_id" : 1102
                                                },
                                                {
                                                   "@xsi.type" : "transport_service",
                                                   "class_name" : "tcp_service",
                                                   "comment" : "Lightweight Directory Access Protocol",
                                                   "display_name" : "ldap",
                                                   "global" : false,
                                                   "id" : "60dcb43f7cfba058286605b7",
                                                   "implicit" : false,
                                                   "match_for_any" : true,
                                                   "max_port" : 389,
                                                   "min_port" : 389,
                                                   "name" : "ldap",
                                                   "negate" : false,
                                                   "origin" : "DEVICE",
                                                   "protocol" : 6,
                                                   "referenced" : "UNKNOWN",
                                                   "shared" : false,
                                                   "timeout" : 0,
                                                   "type_on_device" : "",
                                                   "uid" : "{97AEB433-9AEA-11D5-BD16-0090272CCB30}",
                                                   "version_id" : 1102
                                                },
                                                {
                                                   "@xsi.type" : "transport_service",
                                                   "class_name" : "tcp_service",
                                                   "comment" : "Microsoft CIFS over TCP",
                                                   "cp_prototype_name" : "CIFS_PROTOCOL",
                                                   "display_name" : "microsoft-ds",
                                                   "global" : false,
                                                   "id" : "60dcb43f7cfba058286605b9",
                                                   "implicit" : false,
                                                   "match_for_any" : true,
                                                   "max_port" : 445,
                                                   "min_port" : 445,
                                                   "name" : "microsoft-ds",
                                                   "negate" : false,
                                                   "origin" : "DEVICE",
                                                   "protocol" : 6,
                                                   "referenced" : "UNKNOWN",
                                                   "shared" : false,
                                                   "timeout" : 0,
                                                   "type_on_device" : "",
                                                   "uid" : "{CFBCACE4-7C6F-11D6-BF0E-3E5A6FE83232}",
                                                   "version_id" : 1102
                                                }
                                             ],
                                             "install_ons" : {
                                                "install_on" : {
                                                   "@xsi.type" : "any_network_object",
                                                   "class_name" : "any_object",
                                                   "display_name" : "Any",
                                                   "global" : false,
                                                   "id" : "60dcb43f7cfba058286605bb",
                                                   "implicit" : false,
                                                   "installable_target" : false,
                                                   "ip_type" : "IPV4",
                                                   "name" : "Any",
                                                   "origin" : "DEVICE",
                                                   "shared" : false,
                                                   "uid" : "{97AEB369-9AEA-11D5-BD16-0090272CCB30}",
                                                   "version_id" : 1102
                                                }
                                             },
                                             "is_disabled" : false,
                                             "name" : "Access To AD 01",
                                             "options" : "",
                                             "ruleNumber" : 11,
                                             "rule_metadata" : {
                                                "applications" : {
                                                   "application" : [
                                                      {
                                                         "id" : 8,
                                                         "name" : "Active Directory",
                                                         "owner" : "Henry Carr"
                                                      }
                                                   ]
                                                },
                                                "business_owners" : {
                                                   "business_owner" : "Henry Carr"
                                                },
                                                "expirations" : "",
                                                "last_hit" : "ERROR",
                                                "last_modified" : "2157 days ago",
                                                "permissiveness_level" : "NA",
                                                "shadowed_status" : "FALSE",
                                                "ticket_ids" : {
                                                   "ticket_id" : 21
                                                },
                                                "violations" : ""
                                             },
                                             "sourceNetworks" : [
                                                {
                                                   "@xsi.type" : "host_network_object",
                                                   "class_name" : "host_plain",
                                                   "comment" : "",
                                                   "device_type" : "Checkpoint",
                                                   "display_name" : "VPN_172.16.30.100",
                                                   "global" : false,
                                                   "id" : "60dcb43f7cfba058286605bd",
                                                   "implicit" : false,
                                                   "installable_target" : false,
                                                   "ip" : "172.16.30.100",
                                                   "ip_type" : "IPV4",
                                                   "name" : "VPN_172.16.30.100",
                                                   "origin" : "DEVICE",
                                                   "referenced" : "FROM_RULE",
                                                   "shared" : false,
                                                   "subnet_mask" : "255.255.255.255",
                                                   "uid" : "{20DE51DC-A1B9-47AF-A5F7-B60CD8DD3818}",
                                                   "version_id" : 1102
                                                },
                                                {
                                                   "@xsi.type" : "network_object_group",
                                                   "class_name" : "network_object_group",
                                                   "comment" : "",
                                                   "device_type" : "Checkpoint",
                                                   "display_name" : "TorontoUsers",
                                                   "global" : false,
                                                   "id" : "60dcb43f7cfba058286605bf",
                                                   "implicit" : false,
                                                   "installable_target" : false,
                                                   "ip_type" : "OTHER",
                                                   "name" : "TorontoUsers",
                                                   "origin" : "DEVICE",
                                                   "referenced" : "FROM_RULE",
                                                   "shared" : false,
                                                   "uid" : "{FBC4E1B4-C72D-11E4-9927-7F0000014949}",
                                                   "version_id" : 1102
                                                },
                                                {
                                                   "@xsi.type" : "host_network_object",
                                                   "class_name" : "host_plain",
                                                   "comment" : "",
                                                   "device_type" : "Checkpoint",
                                                   "display_name" : "VPN_172.16.30.101",
                                                   "global" : false,
                                                   "id" : "60dcb43f7cfba058286605c1",
                                                   "implicit" : false,
                                                   "installable_target" : false,
                                                   "ip" : "172.16.30.101",
                                                   "ip_type" : "IPV4",
                                                   "name" : "VPN_172.16.30.101",
                                                   "origin" : "DEVICE",
                                                   "referenced" : "FROM_RULE",
                                                   "shared" : false,
                                                   "subnet_mask" : "255.255.255.255",
                                                   "uid" : "{7AC7972C-A198-4B9F-AE14-D04205627F0A}",
                                                   "version_id" : 1102
                                                },
                                                {
                                                   "@xsi.type" : "network_object_group",
                                                   "class_name" : "network_object_group",
                                                   "comment" : "",
                                                   "device_type" : "Checkpoint",
                                                   "display_name" : "HQusers",
                                                   "global" : false,
                                                   "id" : "60dcb43f7cfba058286605c3",
                                                   "implicit" : false,
                                                   "installable_target" : false,
                                                   "ip_type" : "OTHER",
                                                   "name" : "HQusers",
                                                   "origin" : "DEVICE",
                                                   "referenced" : "FROM_RULE",
                                                   "shared" : false,
                                                   "uid" : "{50A2EB18-C738-11E4-8E82-7F0000019F9F}",
                                                   "version_id" : 1102
                                                }
                                             ],
                                             "times" : {
                                                "time" : {
                                                   "class_name" : "any_object",
                                                   "global" : false,
                                                   "name" : "Any",
                                                   "uid" : "{97AEB369-9AEA-11D5-BD16-0090272CCB30}"
                                                }
                                             },
                                             "track" : {
                                                "track_level" : "LOG"
                                             },
                                             "uid" : "{FC09383C-C72D-11E4-9927-7F0000014949}",
                                             "users" : ""
                                          }
                                       }
                                    }
                                 },
                                 "management_id" : 20,
                                 "management_ip" : "10.100.200.110",
                                 "management_name" : "CP SMC",
                                 "number_of_rules" : 1,
                                 "revision_id" : 1102,
                                 "revision_number" : 100
                              }
                           },
                           "id" : 24667,
                           "name" : "RM",
                           "read_only" : false,
                           "rule_modifications" : {
                              "rule_modification" : {
                                 "@xsi.type" : "modify_rule_modification",
                                 "id" : 1,
                                 "rule_key" : {
                                    "binding_uid" : "{3A1BA062-6B19-4C97-8F18-79CBA9EF0AA6}",
                                    "device_id" : 20,
                                    "rule_uid" : "{FC09383C-C72D-11E4-9927-7F0000014949}"
                                 },
                                 "source_modifications" : {
                                    "id" : 1,
                                    "network_object_cell_modifications" : {
                                       "network_object_cell_modification" : {
                                          "action" : "REMOVE",
                                          "device_network_object" : {
                                             "device_id" : 20,
                                             "id" : 1,
                                             "network_object" : [
                                                {
                                                   "@xsi.type" : "ns_sc_policy:network_object_group",
                                                   "comment" : "",
                                                   "id" : 1,
                                                   "name" : "TorontoUsers"
                                                }
                                             ],
                                             "status" : {
                                                "@xsi.type" : "existing",
                                                "st_uid" : "{FBC4E1B4-C72D-11E4-9927-7F0000014949}"
                                             },
                                             "uid" : "2477f8d8-be0c-4fab-b185-cc219cf79725"
                                          },
                                          "id" : 1
                                       }
                                    }
                                 }
                              }
                           }
                        }
                     },
                     "id" : 1829,
                     "status" : "DONE"
                  }
               }
            },
            {
               "id" : 1818,
               "name" : "Design",
               "redone" : false,
               "skipped" : false,
               "tasks" : {
                  "task" : {
                     "assignee" : "N/A",
                     "fields" : {
                        "field" : {
                           "@xsi.type" : "rule_modification_field",
                           "designer_result" : {
                              "status" : "not run"
                           },
                           "devices" : {
                              "device" : {
                                 "bindings" : {
                                    "binding" : {
                                       "binding" : {
                                          "@xsi.type" : "policy__binding",
                                          "installed_on_module" : "SMCPM",
                                          "policy_name" : "Standard"
                                       },
                                       "binding_uid" : "{3A1BA062-6B19-4C97-8F18-79CBA9EF0AA6}",
                                       "rules" : {
                                          "rule" : {
                                             "@xsi.type" : "ns3:slimRuleWithMetadataDTO",
                                             "action" : "ACCEPT",
                                             "additional_parameters" : "",
                                             "communities" : {
                                                "community" : {
                                                   "class_name" : "any_object",
                                                   "name" : "Any",
                                                   "uid" : "{97AEB369-9AEA-11D5-BD16-0090272CCB30}"
                                                }
                                             },
                                             "destinationNetworks" : {
                                                "@xsi.type" : "network_object_group",
                                                "class_name" : "network_object_group",
                                                "comment" : "",
                                                "device_type" : "Checkpoint",
                                                "display_name" : "tufin_domain_controllerF5-LTM",
                                                "global" : false,
                                                "id" : "60dcb43f7cfba058286605b3",
                                                "implicit" : false,
                                                "installable_target" : false,
                                                "ip_type" : "OTHER",
                                                "name" : "tufin_domain_controllerF5-LTM",
                                                "origin" : "DEVICE",
                                                "referenced" : "FROM_RULE",
                                                "shared" : false,
                                                "uid" : "{FBB55938-C72D-11E4-9927-7F0000014949}",
                                                "version_id" : 1102
                                             },
                                             "destinationServices" : [
                                                {
                                                   "@xsi.type" : "transport_service",
                                                   "class_name" : "udp_service",
                                                   "comment" : "Network Time Protocol (UDP)",
                                                   "display_name" : "ntp-udp",
                                                   "global" : false,
                                                   "id" : "60dcb43f7cfba058286605b5",
                                                   "implicit" : false,
                                                   "match_for_any" : true,
                                                   "max_port" : 123,
                                                   "min_port" : 123,
                                                   "name" : "ntp-udp",
                                                   "negate" : false,
                                                   "origin" : "DEVICE",
                                                   "protocol" : 17,
                                                   "referenced" : "UNKNOWN",
                                                   "shared" : false,
                                                   "timeout" : 0,
                                                   "type_on_device" : "",
                                                   "uid" : "{97AEB404-9AEA-11D5-BD16-0090272CCB30}",
                                                   "version_id" : 1102
                                                },
                                                {
                                                   "@xsi.type" : "transport_service",
                                                   "class_name" : "tcp_service",
                                                   "comment" : "Lightweight Directory Access Protocol",
                                                   "display_name" : "ldap",
                                                   "global" : false,
                                                   "id" : "60dcb43f7cfba058286605b7",
                                                   "implicit" : false,
                                                   "match_for_any" : true,
                                                   "max_port" : 389,
                                                   "min_port" : 389,
                                                   "name" : "ldap",
                                                   "negate" : false,
                                                   "origin" : "DEVICE",
                                                   "protocol" : 6,
                                                   "referenced" : "UNKNOWN",
                                                   "shared" : false,
                                                   "timeout" : 0,
                                                   "type_on_device" : "",
                                                   "uid" : "{97AEB433-9AEA-11D5-BD16-0090272CCB30}",
                                                   "version_id" : 1102
                                                },
                                                {
                                                   "@xsi.type" : "transport_service",
                                                   "class_name" : "tcp_service",
                                                   "comment" : "Microsoft CIFS over TCP",
                                                   "cp_prototype_name" : "CIFS_PROTOCOL",
                                                   "display_name" : "microsoft-ds",
                                                   "global" : false,
                                                   "id" : "60dcb43f7cfba058286605b9",
                                                   "implicit" : false,
                                                   "match_for_any" : true,
                                                   "max_port" : 445,
                                                   "min_port" : 445,
                                                   "name" : "microsoft-ds",
                                                   "negate" : false,
                                                   "origin" : "DEVICE",
                                                   "protocol" : 6,
                                                   "referenced" : "UNKNOWN",
                                                   "shared" : false,
                                                   "timeout" : 0,
                                                   "type_on_device" : "",
                                                   "uid" : "{CFBCACE4-7C6F-11D6-BF0E-3E5A6FE83232}",
                                                   "version_id" : 1102
                                                }
                                             ],
                                             "install_ons" : {
                                                "install_on" : {
                                                   "@xsi.type" : "any_network_object",
                                                   "class_name" : "any_object",
                                                   "display_name" : "Any",
                                                   "global" : false,
                                                   "id" : "60dcb43f7cfba058286605bb",
                                                   "implicit" : false,
                                                   "installable_target" : false,
                                                   "ip_type" : "IPV4",
                                                   "name" : "Any",
                                                   "origin" : "DEVICE",
                                                   "shared" : false,
                                                   "uid" : "{97AEB369-9AEA-11D5-BD16-0090272CCB30}",
                                                   "version_id" : 1102
                                                }
                                             },
                                             "is_disabled" : false,
                                             "name" : "Access To AD 01",
                                             "options" : "",
                                             "ruleNumber" : 11,
                                             "rule_metadata" : {
                                                "applications" : {
                                                   "application" : [
                                                      {
                                                         "id" : 8,
                                                         "name" : "Active Directory",
                                                         "owner" : "Henry Carr"
                                                      }
                                                   ]
                                                },
                                                "business_owners" : {
                                                   "business_owner" : "Henry Carr"
                                                },
                                                "expirations" : "",
                                                "last_hit" : "ERROR",
                                                "last_modified" : "2157 days ago",
                                                "permissiveness_level" : "NA",
                                                "shadowed_status" : "FALSE",
                                                "ticket_ids" : {
                                                   "ticket_id" : 21
                                                },
                                                "violations" : ""
                                             },
                                             "sourceNetworks" : [
                                                {
                                                   "@xsi.type" : "host_network_object",
                                                   "class_name" : "host_plain",
                                                   "comment" : "",
                                                   "device_type" : "Checkpoint",
                                                   "display_name" : "VPN_172.16.30.100",
                                                   "global" : false,
                                                   "id" : "60dcb43f7cfba058286605bd",
                                                   "implicit" : false,
                                                   "installable_target" : false,
                                                   "ip" : "172.16.30.100",
                                                   "ip_type" : "IPV4",
                                                   "name" : "VPN_172.16.30.100",
                                                   "origin" : "DEVICE",
                                                   "referenced" : "FROM_RULE",
                                                   "shared" : false,
                                                   "subnet_mask" : "255.255.255.255",
                                                   "uid" : "{20DE51DC-A1B9-47AF-A5F7-B60CD8DD3818}",
                                                   "version_id" : 1102
                                                },
                                                {
                                                   "@xsi.type" : "network_object_group",
                                                   "class_name" : "network_object_group",
                                                   "comment" : "",
                                                   "device_type" : "Checkpoint",
                                                   "display_name" : "TorontoUsers",
                                                   "global" : false,
                                                   "id" : "60dcb43f7cfba058286605bf",
                                                   "implicit" : false,
                                                   "installable_target" : false,
                                                   "ip_type" : "OTHER",
                                                   "name" : "TorontoUsers",
                                                   "origin" : "DEVICE",
                                                   "referenced" : "FROM_RULE",
                                                   "shared" : false,
                                                   "uid" : "{FBC4E1B4-C72D-11E4-9927-7F0000014949}",
                                                   "version_id" : 1102
                                                },
                                                {
                                                   "@xsi.type" : "host_network_object",
                                                   "class_name" : "host_plain",
                                                   "comment" : "",
                                                   "device_type" : "Checkpoint",
                                                   "display_name" : "VPN_172.16.30.101",
                                                   "global" : false,
                                                   "id" : "60dcb43f7cfba058286605c1",
                                                   "implicit" : false,
                                                   "installable_target" : false,
                                                   "ip" : "172.16.30.101",
                                                   "ip_type" : "IPV4",
                                                   "name" : "VPN_172.16.30.101",
                                                   "origin" : "DEVICE",
                                                   "referenced" : "FROM_RULE",
                                                   "shared" : false,
                                                   "subnet_mask" : "255.255.255.255",
                                                   "uid" : "{7AC7972C-A198-4B9F-AE14-D04205627F0A}",
                                                   "version_id" : 1102
                                                },
                                                {
                                                   "@xsi.type" : "network_object_group",
                                                   "class_name" : "network_object_group",
                                                   "comment" : "",
                                                   "device_type" : "Checkpoint",
                                                   "display_name" : "HQusers",
                                                   "global" : false,
                                                   "id" : "60dcb43f7cfba058286605c3",
                                                   "implicit" : false,
                                                   "installable_target" : false,
                                                   "ip_type" : "OTHER",
                                                   "name" : "HQusers",
                                                   "origin" : "DEVICE",
                                                   "referenced" : "FROM_RULE",
                                                   "shared" : false,
                                                   "uid" : "{50A2EB18-C738-11E4-8E82-7F0000019F9F}",
                                                   "version_id" : 1102
                                                }
                                             ],
                                             "times" : {
                                                "time" : {
                                                   "class_name" : "any_object",
                                                   "global" : false,
                                                   "name" : "Any",
                                                   "uid" : "{97AEB369-9AEA-11D5-BD16-0090272CCB30}"
                                                }
                                             },
                                             "track" : {
                                                "track_level" : "LOG"
                                             },
                                             "uid" : "{FC09383C-C72D-11E4-9927-7F0000014949}",
                                             "users" : ""
                                          }
                                       }
                                    }
                                 },
                                 "management_id" : 20,
                                 "management_ip" : "10.100.200.110",
                                 "management_name" : "CP SMC",
                                 "number_of_rules" : 1,
                                 "revision_id" : 1102,
                                 "revision_number" : 100
                              }
                           },
                           "id" : 24668,
                           "name" : "RM",
                           "read_only" : false,
                           "rule_modifications" : {
                              "rule_modification" : {
                                 "@xsi.type" : "modify_rule_modification",
                                 "id" : 2,
                                 "rule_key" : {
                                    "binding_uid" : "{3A1BA062-6B19-4C97-8F18-79CBA9EF0AA6}",
                                    "device_id" : 20,
                                    "rule_uid" : "{FC09383C-C72D-11E4-9927-7F0000014949}"
                                 },
                                 "source_modifications" : {
                                    "id" : 2,
                                    "network_object_cell_modifications" : {
                                       "network_object_cell_modification" : {
                                          "action" : "REMOVE",
                                          "device_network_object" : {
                                             "device_id" : 20,
                                             "id" : 2,
                                             "network_object" : [
                                                {
                                                   "@xsi.type" : "ns_sc_policy:network_object_group",
                                                   "comment" : "",
                                                   "id" : 2,
                                                   "name" : "TorontoUsers"
                                                }
                                             ],
                                             "status" : {
                                                "@xsi.type" : "existing",
                                                "st_uid" : "{FBC4E1B4-C72D-11E4-9927-7F0000014949}"
                                             },
                                             "uid" : "2477f8d8-be0c-4fab-b185-cc219cf79725"
                                          },
                                          "id" : 2
                                       }
                                    }
                                 }
                              }
                           }
                        }
                     },
                     "id" : 1830,
                     "status" : "WAITING_TO_BE_ASSIGNED"
                  }
               }
            }
         ]
      },
      "subject" : "dood 0",
      "update_date" : "2021-06-30T21:14:18.274+03:00",
      "workflow" : {
         "id" : 252,
         "name" : "Test Rule Modification",
         "uses_topology" : false
      }
   }
}
