{
   "id":114,
   "latest_revision":1438,
   "parent_id":75,
   "virtual_type":"context",
   "domain_name":"Public Cloud",
   "model":"aws_vpc",
   "vendor":"Amazon",
   "offline":false,
   "topology":true,
   "module_uid":"",
   "domain_id":6,
   "name":"AWS-DataCenter-02"
}