{
   "id":411,
   "latest_revision":3231,
   "virtual_type":"",
   "domain_name":"Default",
   "model":"junosStateless",
   "vendor":"Netscreen",
   "offline":false,
   "topology":true,
   "module_uid":"",
   "domain_id":1,
   "name":"Juniper-MX5"
}