{
   "id":232,
   "latest_revision":3348,
   "virtual_type":"management",
   "domain_name":"Default",
   "model":"Panorama_ng",
   "vendor":"PaloAltoNetworks",
   "offline":false,
   "topology":false,
   "module_uid":"",
   "domain_id":1,
   "name":"PANO-8"
}