{
   "id":212,
   "parent_id":196,
   "virtual_type":"context",
   "domain_name":"1Toronto BCKP",
   "model":"firepower",
   "vendor":"Cisco",
   "offline":false,
   "topology":true,
   "module_uid":"",
   "domain_id":9,
   "name":"FTD_50_v1"
}