{
   "id":574,
   "latest_revision":2635,
   "parent_id":572,
   "virtual_type":"context",
   "domain_name":"Default",
   "model":"fmg_firewall",
   "vendor":"Fortinet",
   "offline":false,
   "topology":true,
   "module_uid":"",
   "domain_id":1,
   "name":"FGVM00TM00000002"
}
