{
   "id":174,
   "latest_revision":2540,
   "virtual_type":"management",
   "domain_name":"HQ - California",
   "model":"Panorama_ng",
   "vendor":"PaloAltoNetworks",
   "offline":false,
   "topology":false,
   "module_uid":"",
   "domain_id":2,
   "name":"Panorama-DG"
}