{
   "id":585,
   "latest_revision":3340,
   "parent_id":583,
   "virtual_type":"mdom",
   "domain_name":"APAC",
   "model":"Panorama_device_group",
   "vendor":"PaloAltoNetworks",
   "offline":false,
   "topology":false,
   "module_uid":"",
   "domain_id":10,
   "name":"DG_1"
}