{
   "id":32,
   "latest_revision":1681,
   "virtual_type":"",
   "domain_name":"Toronto",
   "model":"router",
   "vendor":"Cisco",
   "offline":true,
   "topology":true,
   "module_uid":"",
   "domain_id":3,
   "name":"RTR4"
}