{
   "id":21,
   "installed_policy":"Standard",
   "latest_revision":949,
   "parent_id":20,
   "virtual_type":"",
   "domain_name":"Toronto",
   "model":"module",
   "vendor":"Checkpoint",
   "offline":false,
   "topology":true,
   "module_uid":"{00000040-000D-004C-8AB9-787318BBB885}",
   "domain_id":3,
   "name":"SMCPM"
}