{
   "id":115,
   "latest_revision":1444,
   "parent_id":75,
   "virtual_type":"context",
   "domain_name":"Public Cloud",
   "model":"aws_vpc",
   "vendor":"Amazon",
   "offline":false,
   "topology":false,
   "module_uid":"",
   "domain_id":6,
   "name":"AWS-Epic Test"
}