{
   "id":245,
   "latest_revision":2623,
   "parent_id":244,
   "virtual_type":"context",
   "domain_name":"Default",
   "model":"new_bigip",
   "vendor":"NewF5",
   "offline":false,
   "topology":true,
   "module_uid":"",
   "domain_id":1,
   "name":"BillyBobTest-Common"
}