{
   "id":75,
   "latest_revision":1345,
   "virtual_type":"device",
   "domain_name":"Public Cloud",
   "model":"aws_manager",
   "vendor":"Amazon",
   "offline":false,
   "topology":true,
   "module_uid":"",
   "domain_id":6,
   "name":"AWS"
}