{
   "id":416,
   "latest_revision":3044,
   "virtual_type":"management",
   "domain_name":"Default",
   "model":"fmc",
   "vendor":"Cisco",
   "offline":false,
   "topology":false,
   "module_uid":"",
   "domain_id":1,
   "name":"fmc"
}