{
   "id":557,
   "latest_revision":2604,
   "virtual_type":"",
   "domain_name":"Default",
   "model":"PaloAltoFW",
   "vendor":"PaloAltoNetworks",
   "offline":false,
   "topology":false,
   "module_uid":"",
   "domain_id":1,
   "name":"B-test-P"
}
