{
   "id":209,
   "latest_revision":1676,
   "parent_id":207,
   "virtual_type":"mdom",
   "domain_name":"Default",
   "model":"aci_tenant",
   "vendor":"Cisco",
   "offline":false,
   "topology":false,
   "module_uid":"",
   "domain_id":1,
   "name":"Cisco ACI -infra"
}