{
   "id":182,
   "latest_revision":2302,
   "parent_id":181,
   "virtual_type":"context",
   "domain_name":"HQ - California",
   "model":"Panorama_ng_fw",
   "vendor":"PaloAltoNetworks",
   "offline":false,
   "topology":true,
   "module_uid":"",
   "domain_id":2,
   "name":"Los Angeles (PAN Cluster)"
}