{
   "id":213,
   "parent_id":198,
   "virtual_type":"context",
   "domain_name":"1Toronto BCKP",
   "model":"firepower",
   "vendor":"Cisco",
   "offline":false,
   "topology":true,
   "module_uid":"",
   "domain_id":9,
   "name":"10.100.111.54"
}