{
   "id":244,
   "latest_revision":2461,
   "virtual_type":"device",
   "domain_name":"Default",
   "model":"new_bigip",
   "vendor":"NewF5",
   "offline":false,
   "topology":true,
   "module_uid":"",
   "domain_id":1,
   "name":"BillyBobTest"
}