{
   "id":559,
   "latest_revision":2607,
   "virtual_type":"",
   "domain_name":"Default",
   "model":"junosStateless",
   "vendor":"Netscreen",
   "offline":false,
   "topology":true,
   "module_uid":"",
   "domain_id":1,
   "name":"Doctest"
}
