{
   "id":596,
   "latest_revision":3233,
   "virtual_type":"",
   "domain_name":"Default",
   "model":"asa",
   "vendor":"Cisco",
   "offline":false,
   "topology":true,
   "module_uid":"",
   "domain_id":1,
   "name":"QA ASAv"
}