{
    "devices": {
        "count": 1,
        "total": 1,
        "device": [
            {
                "id": "1",
                "name": "RTR1",
                "vendor": "Cisco",
                "model": "router",
                "domain_id": "1",
                "domain_name": "Default",
                "offline": false,
                "topology": true,
                "module_uid": "",
                "ip": "10.100.200.54",
                "latest_revision": "1674",
                "virtual_type": ""
            }
        ]
    }
}
