{
    "TransparentFirewalls": [
        {
            "id": 17,
            "outputL3DeviceId": 22,
            "outputL3IsGenericDevice": false,
            "outputL3InterfaceName": "FastEthernet0/0",
            "layer2DeviceId": 9,
            "inputL2InterfaceName": "inside",
            "outputL2InterfaceName": "outside",
            "inputL3DeviceId": 1,
            "inputL3IsGenericDevice": true,
            "inputL3InterfaceName": "interface2"
        },
        {
            "id": 23,
            "outputL3DeviceId": 23,
            "outputL3IsGenericDevice": false,
            "outputL3InterfaceName": "FastEthernet2/0",
            "layer2DeviceId": 9,
            "inputL2InterfaceName": "inside",
            "outputL2InterfaceName": "outside",
            "inputL3DeviceId": 17,
            "inputL3IsGenericDevice": false,
            "inputL3InterfaceName": "mgmt"
        }
    ]
}