{
    "network_objects": {
        "count": 54,
        "network_object": [
            {
                "@xsi.type": "hostNetworkObjectDTO",
                "id": "4179",
                "name": "10.10.20.10 (trust)",
                "display_name": "10.10.20.10",
                "class_name": "host_plain",
                "type": "host",
                "global": false,
                "comment": "",
                "uid": "{e3ffdb7a-97d3-4080-b53c-2b82a06d121e}",
                "implicit": false,
                "overrides": false,
                "ip_type": "IPv4",
                "ip": "10.10.20.10"
            },
            {
                "@xsi.type": "hostNetworkObjectDTO",
                "id": "4180",
                "name": "10.10.20.15 (trust)",
                "display_name": "10.10.20.15",
                "class_name": "host_plain",
                "type": "host",
                "global": false,
                "comment": "",
                "uid": "{6a12b861-fe6f-4965-8d9d-00b64d99d32b}",
                "implicit": false,
                "overrides": false,
                "ip_type": "IPv4",
                "ip": "10.10.20.15"
            },
            {
                "@xsi.type": "hostNetworkObjectDTO",
                "id": "4181",
                "name": "10.10.20.50 (trust)",
                "display_name": "10.10.20.50",
                "class_name": "host_plain",
                "type": "host",
                "global": false,
                "comment": "",
                "uid": "{b4e77d4c-f471-4bb2-bfff-69503bdd6669}",
                "implicit": false,
                "overrides": false,
                "ip_type": "IPv4",
                "ip": "10.10.20.50"
            },
            {
                "@xsi.type": "hostNetworkObjectDTO",
                "id": "4182",
                "name": "10.10.20.51 (trust)",
                "display_name": "10.10.20.51",
                "class_name": "host_plain",
                "type": "host",
                "global": false,
                "comment": "",
                "uid": "{ed8e78f1-57e7-4580-82f2-7853383317bc}",
                "implicit": false,
                "overrides": false,
                "ip_type": "IPv4",
                "ip": "10.10.20.51"
            },
            {
                "@xsi.type": "hostNetworkObjectDTO",
                "id": "4183",
                "name": "10.10.30.250 (untrust)",
                "display_name": "10.10.30.250",
                "class_name": "host_plain",
                "type": "host",
                "global": false,
                "comment": "",
                "uid": "{d42020bc-6c4a-4105-ad92-13e7d38f5f89}",
                "implicit": false,
                "overrides": false,
                "ip_type": "IPv4",
                "ip": "10.10.30.250"
            },
            {
                "@xsi.type": "hostNetworkObjectDTO",
                "id": "4184",
                "name": "10.10.30.251 (untrust)",
                "display_name": "10.10.30.251",
                "class_name": "host_plain",
                "type": "host",
                "global": false,
                "comment": "",
                "uid": "{6546bd03-d798-49dc-85ef-85b31e8f4519}",
                "implicit": false,
                "overrides": false,
                "ip_type": "IPv4",
                "ip": "10.10.30.251"
            },
            {
                "@xsi.type": "hostNetworkObjectDTO",
                "id": "4185",
                "name": "172.100.10.60 (untrust)",
                "display_name": "172.100.10.60",
                "class_name": "host_plain",
                "type": "host",
                "global": false,
                "comment": "",
                "uid": "{b659df88-7a4f-4407-8e29-9a506dc88ea8}",
                "implicit": false,
                "overrides": false,
                "ip_type": "IPv4",
                "ip": "172.100.10.60"
            },
            {
                "@xsi.type": "hostNetworkObjectDTO",
                "id": "4186",
                "name": "172.100.10.61 (untrust)",
                "display_name": "172.100.10.61",
                "class_name": "host_plain",
                "type": "host",
                "global": false,
                "comment": "",
                "uid": "{388fdff4-97fb-4114-af9f-f9a10a5ed48a}",
                "implicit": false,
                "overrides": false,
                "ip_type": "IPv4",
                "ip": "172.100.10.61"
            },
            {
                "@xsi.type": "hostNetworkObjectDTO",
                "id": "4187",
                "name": "172.16.90.5 (trust)",
                "display_name": "172.16.90.5",
                "class_name": "host_plain",
                "type": "host",
                "global": false,
                "comment": "",
                "uid": "{786bb4df-8ac6-45be-81e3-6c9654bf08b3}",
                "implicit": false,
                "overrides": false,
                "ip_type": "IPv4",
                "ip": "172.16.90.5"
            },
            {
                "@xsi.type": "hostNetworkObjectDTO",
                "id": "4188",
                "name": "172.16.90.6 (trust)",
                "display_name": "172.16.90.6",
                "class_name": "host_plain",
                "type": "host",
                "global": false,
                "comment": "",
                "uid": "{349479a8-1f7a-45d1-9c3c-492f45e8440c}",
                "implicit": false,
                "overrides": false,
                "ip_type": "IPv4",
                "ip": "172.16.90.6"
            },
            {
                "@xsi.type": "hostNetworkObjectDTO",
                "id": "4189",
                "name": "192.168.1.251 (untrust)",
                "display_name": "192.168.1.251",
                "class_name": "host_plain",
                "type": "host",
                "global": false,
                "comment": "",
                "uid": "{6c972efc-37a9-4c30-a368-6919ac5cf94a}",
                "implicit": false,
                "overrides": false,
                "ip_type": "IPv4",
                "ip": "192.168.1.251"
            },
            {
                "@xsi.type": "hostNetworkObjectDTO",
                "id": "4190",
                "name": "192.168.1.252 (untrust)",
                "display_name": "192.168.1.252",
                "class_name": "host_plain",
                "type": "host",
                "global": false,
                "comment": "",
                "uid": "{1a705a9b-8ae2-42b7-a054-6ba7bc34d151}",
                "implicit": false,
                "overrides": false,
                "ip_type": "IPv4",
                "ip": "192.168.1.252"
            },
            {
                "@xsi.type": "basicNetworkObjectDTO",
                "id": "4176",
                "name": "Any",
                "display_name": "Any",
                "class_name": "any_object",
                "type": "basic",
                "global": false,
                "uid": "{97AEB369-9AEA-11D5-BD16-0090272CCB30}",
                "implicit": false,
                "overrides": false,
                "ip_type": "IPv4"
            },
            {
                "@xsi.type": "basicNetworkObjectDTO",
                "id": "4177",
                "name": "Any-IPv4",
                "display_name": "Any-IPv4",
                "class_name": "any_object",
                "type": "basic",
                "global": false,
                "uid": "{E1E3C490-6CAA-430B-9D0A-9573E197DCC7}",
                "implicit": false,
                "overrides": false,
                "ip_type": "IPv4"
            },
            {
                "@xsi.type": "basicNetworkObjectDTO",
                "id": "4178",
                "name": "Any-IPv6",
                "display_name": "Any-IPv6",
                "class_name": "any_object",
                "type": "basic",
                "global": false,
                "uid": "{DE6B04DC-D576-4BA5-AC96-B6D7C6E3EF56}",
                "implicit": false,
                "overrides": false,
                "ip_type": "IPv6"
            },
            {
                "@xsi.type": "networkObjectGroupDTO",
                "id": "4191",
                "name": "ESX_VM (trust)",
                "display_name": "ESX_VM",
                "class_name": "network_object_group",
                "type": "group",
                "global": false,
                "comment": "",
                "uid": "{bc2ae877-26ad-431b-ba64-3c356b4d9498}",
                "implicit": false,
                "overrides": false,
                "ip_type": "Other",
                "member": [
                    {
                        "id": "4188",
                        "uid": "{349479a8-1f7a-45d1-9c3c-492f45e8440c}",
                        "display_name": "172.16.90.6",
                        "name": "172.16.90.6 (trust)"
                    },
                    {
                        "id": "4187",
                        "uid": "{786bb4df-8ac6-45be-81e3-6c9654bf08b3}",
                        "display_name": "172.16.90.5",
                        "name": "172.16.90.5 (trust)"
                    }
                ],
                "exclusion": []
            },
            {
                "@xsi.type": "networkObjectGroupDTO",
                "id": "4194",
                "name": "Finance (untrust)",
                "display_name": "Finance",
                "class_name": "network_object_group",
                "type": "group",
                "global": false,
                "comment": "",
                "uid": "{859fe472-dd45-45be-8611-a131b214edd4}",
                "implicit": false,
                "overrides": false,
                "ip_type": "Other",
                "member": [
                    {
                        "id": "4196",
                        "uid": "{a2149923-030c-4295-b415-a17c48da5fb4}",
                        "display_name": "Finance_192.168.50.101",
                        "name": "Finance_192.168.50.101 (untrust)"
                    },
                    {
                        "id": "4195",
                        "uid": "{5eaed426-1861-410d-aa58-fbad7b77ac0f}",
                        "display_name": "Finance_192.168.50.100",
                        "name": "Finance_192.168.50.100 (untrust)"
                    }
                ],
                "exclusion": []
            },
            {
                "@xsi.type": "hostNetworkObjectDTO",
                "id": "4195",
                "name": "Finance_192.168.50.100 (untrust)",
                "display_name": "Finance_192.168.50.100",
                "class_name": "host_plain",
                "type": "host",
                "global": false,
                "comment": "",
                "uid": "{5eaed426-1861-410d-aa58-fbad7b77ac0f}",
                "implicit": false,
                "overrides": false,
                "ip_type": "IPv4",
                "ip": "192.168.50.100"
            },
            {
                "@xsi.type": "hostNetworkObjectDTO",
                "id": "4196",
                "name": "Finance_192.168.50.101 (untrust)",
                "display_name": "Finance_192.168.50.101",
                "class_name": "host_plain",
                "type": "host",
                "global": false,
                "comment": "",
                "uid": "{a2149923-030c-4295-b415-a17c48da5fb4}",
                "implicit": false,
                "overrides": false,
                "ip_type": "IPv4",
                "ip": "192.168.50.101"
            },
            {
                "@xsi.type": "hostNetworkObjectDTO",
                "id": "4201",
                "name": "Host_10.200.1.24 (untrust)",
                "display_name": "Host_10.200.1.24",
                "class_name": "host_plain",
                "type": "host",
                "global": false,
                "comment": "",
                "uid": "{42425ee7-1150-448a-b0e2-0f462256a814}",
                "implicit": false,
                "overrides": false,
                "ip_type": "IPv4",
                "ip": "10.200.1.24"
            },
            {
                "@xsi.type": "hostNetworkObjectDTO",
                "id": "4203",
                "name": "Host_172.16.20.20 (untrust)",
                "display_name": "Host_172.16.20.20",
                "class_name": "host_plain",
                "type": "host",
                "global": false,
                "comment": "",
                "uid": "{3827559e-006b-4a9e-8ee2-a9cdebc6826d}",
                "implicit": false,
                "overrides": false,
                "ip_type": "IPv4",
                "ip": "172.16.20.20"
            },
            {
                "@xsi.type": "hostNetworkObjectDTO",
                "id": "4204",
                "name": "Host_172.16.30.30 (untrust)",
                "display_name": "Host_172.16.30.30",
                "class_name": "host_plain",
                "type": "host",
                "global": false,
                "comment": "",
                "uid": "{e6c01081-63fe-47c4-b9fe-7aeeb649aa35}",
                "implicit": false,
                "overrides": false,
                "ip_type": "IPv4",
                "ip": "172.16.30.30"
            },
            {
                "@xsi.type": "hostNetworkObjectDTO",
                "id": "4205",
                "name": "Host_172.16.40.40 (untrust)",
                "display_name": "Host_172.16.40.40",
                "class_name": "host_plain",
                "type": "host",
                "global": false,
                "comment": "",
                "uid": "{ad229e77-0c64-44ce-a64f-4a5d9017aeb2}",
                "implicit": false,
                "overrides": false,
                "ip_type": "IPv4",
                "ip": "172.16.40.40"
            },
            {
                "@xsi.type": "hostNetworkObjectDTO",
                "id": "4206",
                "name": "Host_172.16.80.180 (trust)",
                "display_name": "Host_172.16.80.180",
                "class_name": "host_plain",
                "type": "host",
                "global": false,
                "comment": "",
                "uid": "{5b45dec8-bcc4-4e9e-af86-d0a9468e086c}",
                "implicit": false,
                "overrides": false,
                "ip_type": "IPv4",
                "ip": "172.16.80.180"
            },
            {
                "@xsi.type": "hostNetworkObjectDTO",
                "id": "4207",
                "name": "Host_172.16.80.190 (trust)",
                "display_name": "Host_172.16.80.190",
                "class_name": "host_plain",
                "type": "host",
                "global": false,
                "comment": "",
                "uid": "{f90a643c-56f8-47df-82f9-42a0d98dc9ed}",
                "implicit": false,
                "overrides": false,
                "ip_type": "IPv4",
                "ip": "172.16.80.190"
            },
            {
                "@xsi.type": "hostNetworkObjectDTO",
                "id": "4208",
                "name": "Host_172.16.90.80 (trust)",
                "display_name": "Host_172.16.90.80",
                "class_name": "host_plain",
                "type": "host",
                "global": false,
                "comment": "",
                "uid": "{6764ec96-8f3e-4516-838a-c53f70371fab}",
                "implicit": false,
                "overrides": false,
                "ip_type": "IPv4",
                "ip": "172.16.90.80"
            },
            {
                "@xsi.type": "hostNetworkObjectDTO",
                "id": "4209",
                "name": "Host_192.168.1.22 (untrust)",
                "display_name": "Host_192.168.1.22",
                "class_name": "host_plain",
                "type": "host",
                "global": false,
                "comment": "",
                "uid": "{37a79c5c-77d7-4380-bd95-da70fecd739f}",
                "implicit": false,
                "overrides": false,
                "ip_type": "IPv4",
                "ip": "192.168.1.22"
            },
            {
                "@xsi.type": "hostNetworkObjectDTO",
                "id": "4210",
                "name": "Host_192.168.2.23 (untrust)",
                "display_name": "Host_192.168.2.23",
                "class_name": "host_plain",
                "type": "host",
                "global": false,
                "comment": "",
                "uid": "{784f3596-5e8d-4473-aa9b-5ee1e7fe5826}",
                "implicit": false,
                "overrides": false,
                "ip_type": "IPv4",
                "ip": "192.168.2.23"
            },
            {
                "@xsi.type": "networkObjectGroupDTO",
                "id": "4211",
                "name": "PM (untrust)",
                "display_name": "PM",
                "class_name": "network_object_group",
                "type": "group",
                "global": false,
                "comment": "",
                "uid": "{1860ab42-ef3a-4378-8801-57437b276330}",
                "implicit": false,
                "overrides": false,
                "ip_type": "Other",
                "member": [
                    {
                        "id": "4212",
                        "uid": "{9a8129cf-260c-4a0d-9eff-45af0f7b20d5}",
                        "display_name": "PM_192.168.3.100",
                        "name": "PM_192.168.3.100 (untrust)"
                    },
                    {
                        "id": "4213",
                        "uid": "{7587f655-c65a-44b7-a14f-ff368d5bbb1c}",
                        "display_name": "PM_192.168.3.101",
                        "name": "PM_192.168.3.101 (untrust)"
                    }
                ],
                "exclusion": []
            },
            {
                "@xsi.type": "hostNetworkObjectDTO",
                "id": "4212",
                "name": "PM_192.168.3.100 (untrust)",
                "display_name": "PM_192.168.3.100",
                "class_name": "host_plain",
                "type": "host",
                "global": false,
                "comment": "",
                "uid": "{9a8129cf-260c-4a0d-9eff-45af0f7b20d5}",
                "implicit": false,
                "overrides": false,
                "ip_type": "IPv4",
                "ip": "192.168.3.100"
            },
            {
                "@xsi.type": "hostNetworkObjectDTO",
                "id": "4213",
                "name": "PM_192.168.3.101 (untrust)",
                "display_name": "PM_192.168.3.101",
                "class_name": "host_plain",
                "type": "host",
                "global": false,
                "comment": "",
                "uid": "{7587f655-c65a-44b7-a14f-ff368d5bbb1c}",
                "implicit": false,
                "overrides": false,
                "ip_type": "IPv4",
                "ip": "192.168.3.101"
            },
            {
                "@xsi.type": "networkObjectGroupDTO",
                "id": "4214",
                "name": "RnD (untrust)",
                "display_name": "RnD",
                "class_name": "network_object_group",
                "type": "group",
                "global": false,
                "comment": "",
                "uid": "{061b3158-f2b2-4eb5-809d-479e1f95b18d}",
                "implicit": false,
                "overrides": false,
                "ip_type": "Other",
                "member": [
                    {
                        "id": "4216",
                        "uid": "{92ad60e1-9be6-48f9-a95a-3f23df878c49}",
                        "display_name": "RnD_192.168.1.100",
                        "name": "RnD_192.168.1.100 (untrust)"
                    },
                    {
                        "id": "4215",
                        "uid": "{3c72e7a9-a40e-4c56-9d74-8040453612fa}",
                        "display_name": "RnD_192.168.1.101",
                        "name": "RnD_192.168.1.101 (untrust)"
                    }
                ],
                "exclusion": []
            },
            {
                "@xsi.type": "hostNetworkObjectDTO",
                "id": "4216",
                "name": "RnD_192.168.1.100 (untrust)",
                "display_name": "RnD_192.168.1.100",
                "class_name": "host_plain",
                "type": "host",
                "global": false,
                "comment": "",
                "uid": "{92ad60e1-9be6-48f9-a95a-3f23df878c49}",
                "implicit": false,
                "overrides": false,
                "ip_type": "IPv4",
                "ip": "192.168.1.100"
            },
            {
                "@xsi.type": "hostNetworkObjectDTO",
                "id": "4215",
                "name": "RnD_192.168.1.101 (untrust)",
                "display_name": "RnD_192.168.1.101",
                "class_name": "host_plain",
                "type": "host",
                "global": false,
                "comment": "",
                "uid": "{3c72e7a9-a40e-4c56-9d74-8040453612fa}",
                "implicit": false,
                "overrides": false,
                "ip_type": "IPv4",
                "ip": "192.168.1.101"
            },
            {
                "@xsi.type": "networkObjectGroupDTO",
                "id": "4217",
                "name": "Sales (untrust)",
                "display_name": "Sales",
                "class_name": "network_object_group",
                "type": "group",
                "global": false,
                "comment": "",
                "uid": "{feceef31-42e0-415e-915d-01d4d5ba415d}",
                "implicit": false,
                "overrides": false,
                "ip_type": "Other",
                "member": [
                    {
                        "id": "4218",
                        "uid": "{17e95f04-42c6-431a-b43d-607da5b0edcb}",
                        "display_name": "Sales_192.168.2.100",
                        "name": "Sales_192.168.2.100 (untrust)"
                    },
                    {
                        "id": "4219",
                        "uid": "{9deb6b5a-07f0-44ef-a09a-bdd50ae38b7f}",
                        "display_name": "Sales_192.168.2.101",
                        "name": "Sales_192.168.2.101 (untrust)"
                    }
                ],
                "exclusion": []
            },
            {
                "@xsi.type": "hostNetworkObjectDTO",
                "id": "4218",
                "name": "Sales_192.168.2.100 (untrust)",
                "display_name": "Sales_192.168.2.100",
                "class_name": "host_plain",
                "type": "host",
                "global": false,
                "comment": "",
                "uid": "{17e95f04-42c6-431a-b43d-607da5b0edcb}",
                "implicit": false,
                "overrides": false,
                "ip_type": "IPv4",
                "ip": "192.168.2.100"
            },
            {
                "@xsi.type": "hostNetworkObjectDTO",
                "id": "4219",
                "name": "Sales_192.168.2.101 (untrust)",
                "display_name": "Sales_192.168.2.101",
                "class_name": "host_plain",
                "type": "host",
                "global": false,
                "comment": "",
                "uid": "{9deb6b5a-07f0-44ef-a09a-bdd50ae38b7f}",
                "implicit": false,
                "overrides": false,
                "ip_type": "IPv4",
                "ip": "192.168.2.101"
            },
            {
                "@xsi.type": "networkObjectGroupDTO",
                "id": "4223",
                "name": "TorontoUsers (untrust)",
                "display_name": "TorontoUsers",
                "class_name": "network_object_group",
                "type": "group",
                "global": false,
                "comment": "",
                "uid": "{cee0dc79-2d3a-43d4-acc6-8320a30786a1}",
                "implicit": false,
                "overrides": false,
                "ip_type": "Other",
                "member": [
                    {
                        "id": "4220",
                        "uid": "{8d1e33eb-975c-4222-8294-1c25933584d8}",
                        "display_name": "Toronto_172.16.40.10",
                        "name": "Toronto_172.16.40.10 (untrust)"
                    },
                    {
                        "id": "4221",
                        "uid": "{ab492905-9b11-41ee-8370-f6ff140d1254}",
                        "display_name": "Toronto_172.16.40.11",
                        "name": "Toronto_172.16.40.11 (untrust)"
                    },
                    {
                        "id": "4222",
                        "uid": "{1926c2b8-b568-4b12-aea6-c6927d0fa975}",
                        "display_name": "Toronto_172.16.40.12",
                        "name": "Toronto_172.16.40.12 (untrust)"
                    }
                ],
                "exclusion": []
            },
            {
                "@xsi.type": "hostNetworkObjectDTO",
                "id": "4220",
                "name": "Toronto_172.16.40.10 (untrust)",
                "display_name": "Toronto_172.16.40.10",
                "class_name": "host_plain",
                "type": "host",
                "global": false,
                "comment": "",
                "uid": "{8d1e33eb-975c-4222-8294-1c25933584d8}",
                "implicit": false,
                "overrides": false,
                "ip_type": "IPv4",
                "ip": "172.16.40.10"
            },
            {
                "@xsi.type": "hostNetworkObjectDTO",
                "id": "4221",
                "name": "Toronto_172.16.40.11 (untrust)",
                "display_name": "Toronto_172.16.40.11",
                "class_name": "host_plain",
                "type": "host",
                "global": false,
                "comment": "",
                "uid": "{ab492905-9b11-41ee-8370-f6ff140d1254}",
                "implicit": false,
                "overrides": false,
                "ip_type": "IPv4",
                "ip": "172.16.40.11"
            },
            {
                "@xsi.type": "hostNetworkObjectDTO",
                "id": "4222",
                "name": "Toronto_172.16.40.12 (untrust)",
                "display_name": "Toronto_172.16.40.12",
                "class_name": "host_plain",
                "type": "host",
                "global": false,
                "comment": "",
                "uid": "{1926c2b8-b568-4b12-aea6-c6927d0fa975}",
                "implicit": false,
                "overrides": false,
                "ip_type": "IPv4",
                "ip": "172.16.40.12"
            },
            {
                "@xsi.type": "basicNetworkObjectDTO",
                "id": "4224",
                "name": "Use Egress Interface IP",
                "display_name": "Use Egress Interface IP",
                "class_name": "egress_interface",
                "type": "basic",
                "global": false,
                "comment": "",
                "uid": "{4f69d60a-c26e-41b2-ac15-0b5f773e08c0}",
                "implicit": true,
                "overrides": false,
                "ip_type": "Other"
            },
            {
                "@xsi.type": "networkObjectGroupDTO",
                "id": "4225",
                "name": "VC_USERS (untrust)",
                "display_name": "VC_USERS",
                "class_name": "network_object_group",
                "type": "group",
                "global": false,
                "comment": "",
                "uid": "{a0a2b111-53ba-48e8-83ea-3854b4042d18}",
                "implicit": false,
                "overrides": false,
                "ip_type": "Other",
                "member": [
                    {
                        "id": "4189",
                        "uid": "{6c972efc-37a9-4c30-a368-6919ac5cf94a}",
                        "display_name": "192.168.1.251",
                        "name": "192.168.1.251 (untrust)"
                    },
                    {
                        "id": "4190",
                        "uid": "{1a705a9b-8ae2-42b7-a054-6ba7bc34d151}",
                        "display_name": "192.168.1.252",
                        "name": "192.168.1.252 (untrust)"
                    }
                ],
                "exclusion": []
            },
            {
                "@xsi.type": "networkObjectGroupDTO",
                "id": "4227",
                "name": "VPNUsers (untrust)",
                "display_name": "VPNUsers",
                "class_name": "network_object_group",
                "type": "group",
                "global": false,
                "comment": "",
                "uid": "{672d2781-c860-436f-937c-d503f9aa6e79}",
                "implicit": false,
                "overrides": false,
                "ip_type": "Other",
                "member": [
                    {
                        "id": "4228",
                        "uid": "{836f5a60-f163-419c-b9a6-9d865e1dd1bb}",
                        "display_name": "VPNUsers_172.16.30.100",
                        "name": "VPNUsers_172.16.30.100 (untrust)"
                    },
                    {
                        "id": "4229",
                        "uid": "{16f26426-d505-486d-8ce7-849dd49a2640}",
                        "display_name": "VPNUsers_172.16.30.101",
                        "name": "VPNUsers_172.16.30.101 (untrust)"
                    }
                ],
                "exclusion": []
            },
            {
                "@xsi.type": "hostNetworkObjectDTO",
                "id": "4228",
                "name": "VPNUsers_172.16.30.100 (untrust)",
                "display_name": "VPNUsers_172.16.30.100",
                "class_name": "host_plain",
                "type": "host",
                "global": false,
                "comment": "",
                "uid": "{836f5a60-f163-419c-b9a6-9d865e1dd1bb}",
                "implicit": false,
                "overrides": false,
                "ip_type": "IPv4",
                "ip": "172.16.30.100"
            },
            {
                "@xsi.type": "hostNetworkObjectDTO",
                "id": "4229",
                "name": "VPNUsers_172.16.30.101 (untrust)",
                "display_name": "VPNUsers_172.16.30.101",
                "class_name": "host_plain",
                "type": "host",
                "global": false,
                "comment": "",
                "uid": "{16f26426-d505-486d-8ce7-849dd49a2640}",
                "implicit": false,
                "overrides": false,
                "ip_type": "IPv4",
                "ip": "172.16.30.101"
            },
            {
                "@xsi.type": "networkObjectGroupDTO",
                "id": "4226",
                "name": "VirtualEchangeServers (trust)",
                "display_name": "VirtualEchangeServers",
                "class_name": "network_object_group",
                "type": "group",
                "global": false,
                "comment": "",
                "uid": "{7318cd46-dd70-4630-bc24-e69778701ef7}",
                "implicit": false,
                "overrides": false,
                "ip_type": "Other",
                "member": [
                    {
                        "id": "4192",
                        "uid": "{a2970af4-7638-4a5f-b101-5324535f2901}",
                        "display_name": "ex01",
                        "name": "ex01 (trust)"
                    },
                    {
                        "id": "4193",
                        "uid": "{e118dd65-76da-4974-92fd-910d15a1de9f}",
                        "display_name": "ex02",
                        "name": "ex02 (trust)"
                    }
                ],
                "exclusion": []
            },
            {
                "@xsi.type": "hostNetworkObjectDTO",
                "id": "4192",
                "name": "ex01 (trust)",
                "display_name": "ex01",
                "class_name": "host_plain",
                "type": "host",
                "global": false,
                "comment": "",
                "uid": "{a2970af4-7638-4a5f-b101-5324535f2901}",
                "implicit": false,
                "overrides": false,
                "ip_type": "IPv4",
                "ip": "172.16.90.150"
            },
            {
                "@xsi.type": "hostNetworkObjectDTO",
                "id": "4193",
                "name": "ex02 (trust)",
                "display_name": "ex02",
                "class_name": "host_plain",
                "type": "host",
                "global": false,
                "comment": "",
                "uid": "{e118dd65-76da-4974-92fd-910d15a1de9f}",
                "implicit": false,
                "overrides": false,
                "ip_type": "IPv4",
                "ip": "172.16.90.151"
            },
            {
                "@xsi.type": "networkObjectGroupDTO",
                "id": "4197",
                "name": "group_1 (trust)",
                "display_name": "group_1",
                "class_name": "network_object_group",
                "type": "group",
                "global": false,
                "comment": "",
                "uid": "{fd343bf4-302b-408d-add0-7edeca86dc17}",
                "implicit": false,
                "overrides": false,
                "ip_type": "Other",
                "member": [
                    {
                        "id": "4181",
                        "uid": "{b4e77d4c-f471-4bb2-bfff-69503bdd6669}",
                        "display_name": "10.10.20.50",
                        "name": "10.10.20.50 (trust)"
                    },
                    {
                        "id": "4182",
                        "uid": "{ed8e78f1-57e7-4580-82f2-7853383317bc}",
                        "display_name": "10.10.20.51",
                        "name": "10.10.20.51 (trust)"
                    }
                ],
                "exclusion": []
            },
            {
                "@xsi.type": "hostNetworkObjectDTO",
                "id": "4198",
                "name": "h_172.200.10.20 (untrust)",
                "display_name": "h_172.200.10.20",
                "class_name": "host_plain",
                "type": "host",
                "global": false,
                "comment": "",
                "uid": "{29e41201-9cf5-4034-ae98-bc019609c761}",
                "implicit": false,
                "overrides": false,
                "ip_type": "IPv4",
                "ip": "172.200.10.20"
            },
            {
                "@xsi.type": "hostNetworkObjectDTO",
                "id": "4199",
                "name": "h_172.200.10.5 (untrust)",
                "display_name": "h_172.200.10.5",
                "class_name": "host_plain",
                "type": "host",
                "global": false,
                "comment": "",
                "uid": "{88093b96-11a8-4f53-8d82-f8948f3af5e9}",
                "implicit": false,
                "overrides": false,
                "ip_type": "IPv4",
                "ip": "172.200.10.5"
            },
            {
                "@xsi.type": "hostNetworkObjectDTO",
                "id": "4200",
                "name": "host_10.10.20.20 (trust)",
                "display_name": "host_10.10.20.20",
                "class_name": "host_plain",
                "type": "host",
                "global": false,
                "comment": "",
                "uid": "{b990bedc-53fb-4632-8dfb-da243fd92426}",
                "implicit": false,
                "overrides": false,
                "ip_type": "IPv4",
                "ip": "10.10.20.20"
            },
            {
                "@xsi.type": "hostNetworkObjectDTO",
                "id": "4202",
                "name": "host_172.100.10.5 (untrust)",
                "display_name": "host_172.100.10.5",
                "class_name": "host_plain",
                "type": "host",
                "global": false,
                "comment": "",
                "uid": "{7cc16735-eff8-411b-9430-4914f04df4e6}",
                "implicit": false,
                "overrides": false,
                "ip_type": "IPv4",
                "ip": "172.100.10.5"
            }
        ]
    }
}
