{
    "network_objects": {
        "count": 1,
        "total": 1,
        "network_object": [
            {
                "@xsi.type": "subnetNetworkObjectDTO",
                "id": "5962",
                "name": "Subnet_10.2.2.0",
                "display_name": "Subnet_10.2.2.0",
                "class_name": "network",
                "type": "subnet",
                "device_id": 157,
                "comment": "",
                "uid": "{b63f31eb-d8ab-410c-b526-20a48ff9dbd2}",
                "implicit": false,
                "management_domain": "Amsterdam",
                "any_zone": true,
                "overrides": false,
                "ip_type": "IPv4",
                "ip": "10.2.2.0",
                "netmask": "255.255.255.0",
                "management_domain_securetrack_name": "Amsterdam"
            }
        ]
    }
}
