{
    "GenericVpns": [
    {
        "id": 17,
        "generic": true,
        "deviceId": 3,
        "interfaceName": "777",
        "tunnelSourceIpAddr": "1.1.1.177",
        "tunnelDestIpAddr": "1.1.1.188"
    },
    {
        "id": 22,
        "generic": true,
        "deviceId": 3,
        "interfaceName": "111",
        "tunnelSourceIpAddr": "1.1.1.188",
        "tunnelDestIpAddr": "1.1.1.177"
    }
    ]
}